{
 "lastId": 29,
 "interfaces": {
  "xyz.swapee.wc.IProgressColumnComputer": {
   "id": 65269839711,
   "symbols": {},
   "methods": {
    "compute": 1,
    "adaptTransactionStatus": 2,
    "adaptProcessingTransaction": 3
   }
  },
  "xyz.swapee.wc.ProgressColumnMemoryPQs": {
   "id": 65269839712,
   "symbols": {},
   "methods": {
    "constructor": 1
   }
  },
  "xyz.swapee.wc.IProgressColumnOuterCore": {
   "id": 65269839713,
   "symbols": {},
   "methods": {}
  },
  "xyz.swapee.wc.ProgressColumnInputsPQs": {
   "id": 65269839714,
   "symbols": {},
   "methods": {
    "constructor": 1
   }
  },
  "xyz.swapee.wc.IProgressColumnPort": {
   "id": 65269839715,
   "symbols": {},
   "methods": {
    "resetPort": 1,
    "resetProgressColumnPort": 2
   }
  },
  "xyz.swapee.wc.IProgressColumnCore": {
   "id": 65269839716,
   "symbols": {},
   "methods": {
    "resetCore": 1,
    "resetProgressColumnCore": 2
   }
  },
  "xyz.swapee.wc.IProgressColumnProcessor": {
   "id": 65269839717,
   "symbols": {},
   "methods": {}
  },
  "xyz.swapee.wc.IProgressColumn": {
   "id": 65269839718,
   "symbols": {},
   "methods": {}
  },
  "xyz.swapee.wc.IProgressColumnBuffer": {
   "id": 65269839719,
   "symbols": {},
   "methods": {}
  },
  "xyz.swapee.wc.IProgressColumnHtmlComponent": {
   "id": 652698397110,
   "symbols": {},
   "methods": {}
  },
  "xyz.swapee.wc.IProgressColumnElement": {
   "id": 652698397111,
   "symbols": {},
   "methods": {
    "solder": 1,
    "render": 2,
    "server": 3,
    "inducer": 4
   }
  },
  "xyz.swapee.wc.IProgressColumnElementPort": {
   "id": 652698397112,
   "symbols": {},
   "methods": {}
  },
  "xyz.swapee.wc.IProgressColumnDesigner": {
   "id": 652698397113,
   "symbols": {},
   "methods": {
    "borrowClasses": 1,
    "classes": 2,
    "communicator": 3,
    "relay": 4
   }
  },
  "xyz.swapee.wc.IProgressColumnGPU": {
   "id": 652698397114,
   "symbols": {},
   "methods": {}
  },
  "xyz.swapee.wc.IProgressColumnDisplay": {
   "id": 652698397115,
   "symbols": {},
   "methods": {
    "paint": 1
   }
  },
  "xyz.swapee.wc.ProgressColumnVdusPQs": {
   "id": 652698397116,
   "symbols": {},
   "methods": {
    "constructor": 1
   }
  },
  "xyz.swapee.wc.back.IProgressColumnDisplay": {
   "id": 652698397117,
   "symbols": {},
   "methods": {
    "paint": 1
   }
  },
  "xyz.swapee.wc.ProgressColumnClassesPQs": {
   "id": 652698397118,
   "symbols": {},
   "methods": {
    "constructor": 1
   }
  },
  "xyz.swapee.wc.IProgressColumnController": {
   "id": 652698397119,
   "symbols": {},
   "methods": {
    "resetPort": 1
   }
  },
  "xyz.swapee.wc.front.IProgressColumnController": {
   "id": 652698397120,
   "symbols": {},
   "methods": {}
  },
  "xyz.swapee.wc.back.IProgressColumnController": {
   "id": 652698397121,
   "symbols": {},
   "methods": {}
  },
  "xyz.swapee.wc.back.IProgressColumnControllerAR": {
   "id": 652698397122,
   "symbols": {},
   "methods": {}
  },
  "xyz.swapee.wc.front.IProgressColumnControllerAT": {
   "id": 652698397123,
   "symbols": {},
   "methods": {}
  },
  "xyz.swapee.wc.IProgressColumnScreen": {
   "id": 652698397124,
   "symbols": {},
   "methods": {}
  },
  "xyz.swapee.wc.back.IProgressColumnScreen": {
   "id": 652698397125,
   "symbols": {},
   "methods": {}
  },
  "xyz.swapee.wc.front.IProgressColumnScreenAR": {
   "id": 652698397126,
   "symbols": {},
   "methods": {}
  },
  "xyz.swapee.wc.back.IProgressColumnScreenAT": {
   "id": 652698397127,
   "symbols": {},
   "methods": {}
  },
  "xyz.swapee.wc.IProgressColumnPortInterface": {
   "id": 652698397128,
   "symbols": {},
   "methods": {}
  },
  "xyz.swapee.wc.ProgressColumnCachePQs": {
   "id": 652698397129,
   "symbols": {},
   "methods": {
    "constructor": 1
   }
  }
 }
}