{
 "1": [
  {
   "name": "AbstractSwapeeWalletPicker",
   "path": "generated/maurice/circuits/swapee-wallet-picker/SwapeeWalletPicker.mvc/gen/AbstractSwapeeWalletPicker/index.js",
   "type": "xyz.swapee.wc.AbstractSwapeeWalletPicker"
  }
 ],
 "3": [
  {
   "name": "SwapeeWalletPickerPort",
   "path": "generated/maurice/circuits/swapee-wallet-picker/SwapeeWalletPicker.mvc/gen/SwapeeWalletPickerPort/index.js",
   "type": "xyz.swapee.wc.SwapeeWalletPickerPort"
  }
 ],
 "4": [
  {
   "name": "AbstractSwapeeWalletPickerController",
   "path": "generated/maurice/circuits/swapee-wallet-picker/SwapeeWalletPicker.mvc/gen/AbstractSwapeeWalletPickerController/index.js",
   "type": "xyz.swapee.wc.AbstractSwapeeWalletPickerController"
  }
 ],
 "5": [
  {
   "name": "AbstractSwapeeWalletPickerCPU",
   "path": "generated/maurice/circuits/swapee-wallet-picker/SwapeeWalletPicker.mvc/gen/AbstractSwapeeWalletPickerCPU/index.js",
   "type": "xyz.swapee.wc.AbstractSwapeeWalletPickerCPU"
  }
 ],
 "8": [
  {
   "name": "SwapeeWalletPickerElement",
   "path": "generated/maurice/circuits/swapee-wallet-picker/SwapeeWalletPicker.mvc/src/SwapeeWalletPickerElement/index.js",
   "type": "xyz.swapee.wc.SwapeeWalletPickerElement"
  }
 ],
 "11": [
  {
   "name": "SwapeeWalletPickerBuffer",
   "path": "generated/maurice/circuits/swapee-wallet-picker/SwapeeWalletPicker.mvc/gen/SwapeeWalletPickerBuffer/index.js",
   "type": "xyz.swapee.wc.SwapeeWalletPickerBuffer"
  }
 ],
 "30": [
  {
   "name": "AbstractSwapeeWalletPickerComputer",
   "path": "generated/maurice/circuits/swapee-wallet-picker/SwapeeWalletPicker.mvc/gen/AbstractSwapeeWalletPickerComputer/index.js",
   "type": "xyz.swapee.wc.AbstractSwapeeWalletPickerComputer"
  }
 ],
 "61": [
  {
   "name": "SwapeeWalletPickerController",
   "path": "generated/maurice/circuits/swapee-wallet-picker/SwapeeWalletPicker.mvc/src/SwapeeWalletPickerServerController/index.js",
   "type": "xyz.swapee.wc.SwapeeWalletPickerController"
  }
 ]
}