{
 "1": [
  {
   "name": "AbstractMotionPath",
   "path": "generated/maurice/circuits/motion-path/MotionPath.mvc/gen/AbstractMotionPath/index.js",
   "type": "xyz.swapee.wc.AbstractMotionPath"
  }
 ],
 "3": [
  {
   "name": "MotionPathPort",
   "path": "generated/maurice/circuits/motion-path/MotionPath.mvc/gen/MotionPathPort/index.js",
   "type": "xyz.swapee.wc.MotionPathPort"
  }
 ],
 "4": [
  {
   "name": "AbstractMotionPathController",
   "path": "generated/maurice/circuits/motion-path/MotionPath.mvc/gen/AbstractMotionPathController/index.js",
   "type": "xyz.swapee.wc.AbstractMotionPathController"
  }
 ],
 "8": [
  {
   "name": "MotionPathElement",
   "path": "generated/maurice/circuits/motion-path/MotionPath.mvc/src/MotionPathElement/index.js",
   "type": "xyz.swapee.wc.MotionPathElement"
  }
 ],
 "11": [
  {
   "name": "MotionPathBuffer",
   "path": "generated/maurice/circuits/motion-path/MotionPath.mvc/gen/MotionPathBuffer/index.js",
   "type": "xyz.swapee.wc.MotionPathBuffer"
  }
 ],
 "30": [
  {
   "name": "AbstractMotionPathComputer",
   "path": "generated/maurice/circuits/motion-path/MotionPath.mvc/gen/AbstractMotionPathComputer/index.js",
   "type": "xyz.swapee.wc.AbstractMotionPathComputer"
  }
 ],
 "61": [
  {
   "name": "MotionPathController",
   "path": "generated/maurice/circuits/motion-path/MotionPath.mvc/src/MotionPathServerController/index.js",
   "type": "xyz.swapee.wc.MotionPathController"
  }
 ]
}