{
 "Compile": {
  "offer-row": {
   "<WCKT>": "generated/maurice/circuits/offer-row/OfferRow.mvc",
   "<ID>": "8085433869",
   "internal": {
    "front": "depack <WCKT>/compile/target/front/internal.json",
    "back": "depack <WCKT>/compile/target/back/internal.json"
   },
   "server": {
    "chunks": "depack <WCKT>/compile/target/server/chunks.json",
    "module": "depack <WCKT>/compile/target/server/module.json"
   },
   "_typal": "types <WCKT>/compile/dist -t <WCKT>/design",
   "doc": {
    "front": "cp <WCKT>/compile/dist/front/precompile/internal-file.js <DOC>/fronts/<ID>.js",
    "back": "cp <WCKT>/compile/dist/back/precompile/internal-file.js <DOC>/backs/<ID>.js"
   }
  }
 }
}