{
 "1": [
  {
   "name": "AbstractTypeWriter",
   "path": "generated/maurice/circuits/type-writer/TypeWriter.mvc/gen/AbstractTypeWriter/index.js",
   "type": "xyz.swapee.wc.AbstractTypeWriter"
  }
 ],
 "3": [
  {
   "name": "TypeWriterPort",
   "path": "generated/maurice/circuits/type-writer/TypeWriter.mvc/gen/TypeWriterPort/index.js",
   "type": "xyz.swapee.wc.TypeWriterPort"
  }
 ],
 "4": [
  {
   "name": "AbstractTypeWriterController",
   "path": "generated/maurice/circuits/type-writer/TypeWriter.mvc/gen/AbstractTypeWriterController/index.js",
   "type": "xyz.swapee.wc.AbstractTypeWriterController"
  }
 ],
 "8": [
  {
   "name": "TypeWriterElement",
   "path": "generated/maurice/circuits/type-writer/TypeWriter.mvc/src/TypeWriterElement/index.js",
   "type": "xyz.swapee.wc.TypeWriterElement"
  }
 ],
 "11": [
  {
   "name": "TypeWriterBuffer",
   "path": "generated/maurice/circuits/type-writer/TypeWriter.mvc/gen/TypeWriterBuffer/index.js",
   "type": "xyz.swapee.wc.TypeWriterBuffer"
  }
 ],
 "30": [
  {
   "name": "AbstractTypeWriterComputer",
   "path": "generated/maurice/circuits/type-writer/TypeWriter.mvc/gen/AbstractTypeWriterComputer/index.js",
   "type": "xyz.swapee.wc.AbstractTypeWriterComputer"
  }
 ],
 "61": [
  {
   "name": "TypeWriterController",
   "path": "generated/maurice/circuits/type-writer/TypeWriter.mvc/src/TypeWriterServerController/index.js",
   "type": "xyz.swapee.wc.TypeWriterController"
  }
 ]
}