{
 "isAggregating": 1,
 "loadingChangellyFloatingOffer": 2,
 "hasMoreChangellyFloatingOffer": 3,
 "loadChangellyFloatingOfferError": 4,
 "loadingChangellyFixedOffer": 5,
 "hasMoreChangellyFixedOffer": 6,
 "loadChangellyFixedOfferError": 7,
 "loadingChangenowOffer": 8,
 "hasMoreChangenowOffer": 9,
 "loadChangenowOfferError": 10,
 "loadingLetsExchangeFloatingOffer": 11,
 "hasMoreLetsExchangeFloatingOffer": 12,
 "loadLetsExchangeFloatingOfferError": 13,
 "loadingLetsExchangeFixedOffer": 14,
 "hasMoreLetsExchangeFixedOffer": 15,
 "loadLetsExchangeFixedOfferError": 16,
 "loadingChangeNowFloatingOffer": 17,
 "hasMoreChangeNowFloatingOffer": 18,
 "loadChangeNowFloatingOfferError": 19,
 "loadingChangeNowFixedOffer": 20,
 "hasMoreChangeNowFixedOffer": 21,
 "loadChangeNowFixedOfferError": 22,
 "loadingEstimate": 23,
 "bestOffer": 24,
 "worstOffer": 25,
 "minAmount": 26,
 "maxAmount": 27,
 "estimatedOut": 28,
 "host": 29,
 "allExchangesLoaded": 30,
 "exchangesLoaded": 31,
 "minError": 32,
 "maxError": 33
}