{
 "h1": "b-a",
 "h2": "b-b",
 "h3": "b-c",
 "h4": "b-d",
 "h5": "b-e",
 "h6": "b-f",
 "lead": "b-g",
 "display-1": "b-h",
 "display-2": "b-i",
 "display-3": "b-j",
 "display-4": "b-k",
 "small": "b-l",
 "mark": "b-m",
 "list-unstyled": "b-n",
 "list-inline": "b-o",
 "list-inline-item": "b-p",
 "initialism": "b-q",
 "blockquote": "b-r",
 "blockquote-footer": "b-s",
 "img-fluid": "b-t",
 "img-thumbnail": "b-u",
 "figure": "b-v",
 "figure-img": "b-w",
 "figure-caption": "b-x",
 "pre-scrollable": "b-y",
 "container": "b-z",
 "container-fluid": "b-A",
 "row": "b-B",
 "no-gutters": "b-C",
 "col": "b-D",
 "col-1": "b-E",
 "col-2": "b-F",
 "col-3": "b-G",
 "col-4": "b-H",
 "col-5": "b-I",
 "col-6": "b-J",
 "col-7": "b-K",
 "col-8": "b-L",
 "col-9": "b-M",
 "col-10": "b-N",
 "col-11": "b-O",
 "col-12": "b-P",
 "col-auto": "b-Q",
 "col-sm-1": "b-R",
 "col-sm-2": "b-S",
 "col-sm-3": "b-T",
 "col-sm-4": "b-U",
 "col-sm-5": "b-V",
 "col-sm-6": "b-W",
 "col-sm-7": "b-X",
 "col-sm-8": "b-Y",
 "col-sm-9": "b-Z",
 "col-sm-10": "b-ab",
 "col-sm-11": "b-bb",
 "col-sm-12": "b-cb",
 "col-sm": "b-db",
 "col-sm-auto": "b-eb",
 "col-md-1": "b-fb",
 "col-md-2": "b-gb",
 "col-md-3": "b-hb",
 "col-md-4": "b-ib",
 "col-md-5": "b-jb",
 "col-md-6": "b-kb",
 "col-md-7": "b-lb",
 "col-md-8": "b-mb",
 "col-md-9": "b-nb",
 "col-md-10": "b-ob",
 "col-md-11": "b-pb",
 "col-md-12": "b-qb",
 "col-md": "b-rb",
 "col-md-auto": "b-sb",
 "col-lg-1": "b-tb",
 "col-lg-2": "b-ub",
 "col-lg-3": "b-vb",
 "col-lg-4": "b-wb",
 "col-lg-5": "b-xb",
 "col-lg-6": "b-yb",
 "col-lg-7": "b-zb",
 "col-lg-8": "b-Ab",
 "col-lg-9": "b-Bb",
 "col-lg-10": "b-Cb",
 "col-lg-11": "b-Db",
 "col-lg-12": "b-Eb",
 "col-lg": "b-Fb",
 "col-lg-auto": "b-Gb",
 "col-xl-1": "b-Hb",
 "col-xl-2": "b-Ib",
 "col-xl-3": "b-Jb",
 "col-xl-4": "b-Kb",
 "col-xl-5": "b-Lb",
 "col-xl-6": "b-Mb",
 "col-xl-7": "b-Nb",
 "col-xl-8": "b-Ob",
 "col-xl-9": "b-Pb",
 "col-xl-10": "b-Qb",
 "col-xl-11": "b-Rb",
 "col-xl-12": "b-Sb",
 "col-xl": "b-Tb",
 "col-xl-auto": "b-Ub",
 "order-first": "b-Vb",
 "order-last": "b-Wb",
 "order-0": "b-Xb",
 "order-1": "b-Yb",
 "order-2": "b-Zb",
 "order-3": "b-ac",
 "order-4": "b-bc",
 "order-5": "b-cc",
 "order-6": "b-dc",
 "order-7": "b-ec",
 "order-8": "b-fc",
 "order-9": "b-gc",
 "order-10": "b-hc",
 "order-11": "b-ic",
 "order-12": "b-jc",
 "offset-1": "b-kc",
 "offset-2": "b-lc",
 "offset-3": "b-mc",
 "offset-4": "b-nc",
 "offset-5": "b-oc",
 "offset-6": "b-pc",
 "offset-7": "b-qc",
 "offset-8": "b-rc",
 "offset-9": "b-sc",
 "offset-10": "b-tc",
 "offset-11": "b-uc",
 "order-sm-first": "b-vc",
 "order-sm-last": "b-wc",
 "order-sm-0": "b-xc",
 "order-sm-1": "b-yc",
 "order-sm-2": "b-zc",
 "order-sm-3": "b-Ac",
 "order-sm-4": "b-Bc",
 "order-sm-5": "b-Cc",
 "order-sm-6": "b-Dc",
 "order-sm-7": "b-Ec",
 "order-sm-8": "b-Fc",
 "order-sm-9": "b-Gc",
 "order-sm-10": "b-Hc",
 "order-sm-11": "b-Ic",
 "order-sm-12": "b-Jc",
 "offset-sm-0": "b-Kc",
 "offset-sm-1": "b-Lc",
 "offset-sm-2": "b-Mc",
 "offset-sm-3": "b-Nc",
 "offset-sm-4": "b-Oc",
 "offset-sm-5": "b-Pc",
 "offset-sm-6": "b-Qc",
 "offset-sm-7": "b-Rc",
 "offset-sm-8": "b-Sc",
 "offset-sm-9": "b-Tc",
 "offset-sm-10": "b-Uc",
 "offset-sm-11": "b-Vc",
 "order-md-first": "b-Wc",
 "order-md-last": "b-Xc",
 "order-md-0": "b-Yc",
 "order-md-1": "b-Zc",
 "order-md-2": "B-ad",
 "order-md-3": "b-bd",
 "order-md-4": "b-cd",
 "order-md-5": "b-dd",
 "order-md-6": "b-ed",
 "order-md-7": "b-fd",
 "order-md-8": "b-gd",
 "order-md-9": "b-hd",
 "order-md-10": "b-id",
 "order-md-11": "b-jd",
 "order-md-12": "b-kd",
 "offset-md-0": "b-ld",
 "offset-md-1": "b-md",
 "offset-md-2": "b-nd",
 "offset-md-3": "b-od",
 "offset-md-4": "b-pd",
 "offset-md-5": "b-qd",
 "offset-md-6": "b-rd",
 "offset-md-7": "b-sd",
 "offset-md-8": "b-td",
 "offset-md-9": "b-ud",
 "offset-md-10": "b-vd",
 "offset-md-11": "b-wd",
 "order-lg-first": "b-xd",
 "order-lg-last": "b-yd",
 "order-lg-0": "b-zd",
 "order-lg-1": "b-Ad",
 "order-lg-2": "b-Bd",
 "order-lg-3": "b-Cd",
 "order-lg-4": "b-Dd",
 "order-lg-5": "b-Ed",
 "order-lg-6": "b-Fd",
 "order-lg-7": "b-Gd",
 "order-lg-8": "b-Hd",
 "order-lg-9": "b-Id",
 "order-lg-10": "b-Jd",
 "order-lg-11": "b-Kd",
 "order-lg-12": "b-Ld",
 "offset-lg-0": "b-Md",
 "offset-lg-1": "b-Nd",
 "offset-lg-2": "b-Od",
 "offset-lg-3": "b-Pd",
 "offset-lg-4": "b-Qd",
 "offset-lg-5": "b-Rd",
 "offset-lg-6": "b-Sd",
 "offset-lg-7": "b-Td",
 "offset-lg-8": "b-Ud",
 "offset-lg-9": "b-Vd",
 "offset-lg-10": "b-Wd",
 "offset-lg-11": "b-Xd",
 "order-xl-first": "b-Yd",
 "order-xl-last": "b-Zd",
 "order-xl-0": "b-ae",
 "order-xl-1": "b-be",
 "order-xl-2": "b-ce",
 "order-xl-3": "b-de",
 "order-xl-4": "b-ee",
 "order-xl-5": "b-fe",
 "order-xl-6": "b-ge",
 "order-xl-7": "b-he",
 "order-xl-8": "b-ie",
 "order-xl-9": "b-je",
 "order-xl-10": "b-ke",
 "order-xl-11": "b-le",
 "order-xl-12": "b-me",
 "offset-xl-0": "b-ne",
 "offset-xl-1": "b-oe",
 "offset-xl-2": "b-pe",
 "offset-xl-3": "b-qe",
 "offset-xl-4": "b-re",
 "offset-xl-5": "b-se",
 "offset-xl-6": "b-te",
 "offset-xl-7": "b-ue",
 "offset-xl-8": "b-ve",
 "offset-xl-9": "b-we",
 "offset-xl-10": "b-xe",
 "offset-xl-11": "b-ye",
 "table": "b-ze",
 "table-sm": "b-Ae",
 "table-bordered": "b-Be",
 "table-borderless": "b-Ce",
 "table-striped": "b-De",
 "table-hover": "b-Ee",
 "table-primary": "b-Fe",
 "table-secondary": "b-Ge",
 "table-success": "b-He",
 "table-info": "b-Ie",
 "table-warning": "b-Je",
 "table-danger": "b-Ke",
 "table-light": "b-Le",
 "table-dark": "b-Me",
 "table-active": "b-Ne",
 "thead-dark": "b-Oe",
 "thead-light": "b-Pe",
 "table-responsive-sm": "b-Qe",
 "table-responsive-md": "b-Re",
 "table-responsive-lg": "b-Se",
 "table-responsive-xl": "b-Te",
 "table-responsive": "b-Ue",
 "form-control": "b-Ve",
 "form-control-file": "b-We",
 "form-control-range": "b-Xe",
 "col-form-label": "b-Ye",
 "col-form-label-lg": "b-Ze",
 "col-form-label-sm": "b-af",
 "form-control-plaintext": "b-bf",
 "form-control-sm": "b-cf",
 "form-control-lg": "b-df",
 "form-group": "b-ef",
 "form-text": "b-ff",
 "form-row": "b-gf",
 "form-check": "b-hf",
 "form-check-input": "b-if",
 "form-check-label": "b-jf",
 "form-check-inline": "b-kf",
 "valid-feedback": "b-lf",
 "valid-tooltip": "b-mf",
 "was-validated": "b-nf",
 "is-valid": "b-of",
 "custom-select": "b-pf",
 "custom-control-input": "b-qf",
 "custom-control-label": "b-rf",
 "custom-file-input": "b-sf",
 "custom-file-label": "b-tf",
 "invalid-feedback": "b-uf",
 "invalid-tooltip": "b-vf",
 "is-invalid": "b-wf",
 "form-inline": "b-xf",
 "input-group": "b-yf",
 "custom-control": "b-zf",
 "btn": "b-Af",
 "focus": "b-Bf",
 "btn-primary": "b-Df",
 "dropdown-toggle": "b-Gf",
 "btn-secondary": "b-Hf",
 "btn-success": "b-If",
 "btn-info": "b-Jf",
 "btn-warning": "b-Kf",
 "btn-danger": "b-Lf",
 "btn-light": "b-Mf",
 "btn-dark": "b-Nf",
 "btn-outline-primary": "b-Of",
 "btn-outline-secondary": "b-Pf",
 "btn-outline-success": "b-Qf",
 "btn-outline-info": "b-Rf",
 "btn-outline-warning": "b-Sf",
 "btn-outline-danger": "b-Tf",
 "btn-outline-light": "b-Uf",
 "btn-outline-dark": "b-Vf",
 "btn-link": "b-Wf",
 "btn-lg": "b-Xf",
 "btn-group-lg": "b-Yf",
 "btn-sm": "b-Zf",
 "btn-group-sm": "b-ag",
 "btn-block": "b-bg",
 "dropup": "b-fg",
 "dropright": "b-gg",
 "dropdown": "b-hg",
 "dropleft": "b-ig",
 "dropdown-menu-left": "b-kg",
 "dropdown-menu-right": "b-lg",
 "dropdown-menu-sm-left": "b-mg",
 "dropdown-menu-sm-right": "b-ng",
 "dropdown-menu-md-left": "b-og",
 "dropdown-menu-md-right": "b-pg",
 "dropdown-menu-lg-left": "b-qg",
 "dropdown-menu-lg-right": "b-rg",
 "dropdown-menu-xl-left": "b-sg",
 "dropdown-menu-xl-right": "b-tg",
 "dropdown-divider": "b-ug",
 "dropdown-header": "b-wg",
 "dropdown-item-text": "b-xg",
 "btn-group": "b-yg",
 "btn-group-vertical": "b-zg",
 "btn-toolbar": "b-Ag",
 "dropdown-toggle-split": "b-Bg",
 "btn-group-toggle": "b-Cg",
 "custom-file": "b-Dg",
 "input-group-prepend": "b-Eg",
 "input-group-append": "b-Fg",
 "input-group-text": "b-Gg",
 "input-group-lg": "b-Hg",
 "input-group-sm": "b-Ig",
 "custom-control-inline": "b-Jg",
 "custom-checkbox": "b-Kg",
 "custom-radio": "b-Lg",
 "custom-switch": "b-Mg",
 "custom-select-sm": "b-Ng",
 "custom-select-lg": "b-Og",
 "custom-range": "b-Pg",
 "nav": "b-Qg",
 "nav-link": "b-Rg",
 "nav-tabs": "b-Sg",
 "nav-item": "b-Tg",
 "nav-pills": "b-Ug",
 "nav-fill": "b-Vg",
 "nav-justified": "b-Wg",
 "tab-content": "b-Xg",
 "tab-pane": "b-Yg",
 "navbar": "b-Zg",
 "navbar-brand": "b-ah",
 "navbar-text": "b-ch",
 "navbar-collapse": "b-dh",
 "navbar-toggler": "b-eh",
 "navbar-toggler-icon": "b-fh",
 "navbar-expand-sm": "b-gh",
 "navbar-expand-md": "b-hh",
 "navbar-expand-lg": "b-ih",
 "navbar-expand-xl": "b-jh",
 "navbar-expand": "b-kh",
 "navbar-light": "b-lh",
 "navbar-dark": "b-mh",
 "card": "b-nh",
 "list-group": "b-oh",
 "list-group-item": "b-ph",
 "card-body": "b-qh",
 "card-title": "b-rh",
 "card-subtitle": "b-sh",
 "card-text": "b-th",
 "card-link": "b-uh",
 "card-header": "b-vh",
 "card-footer": "b-wh",
 "card-header-tabs": "b-xh",
 "card-header-pills": "b-yh",
 "card-img-overlay": "b-zh",
 "card-img": "b-Ah",
 "card-img-top": "b-Bh",
 "card-img-bottom": "b-Ch",
 "card-deck": "b-Dh",
 "card-group": "b-Eh",
 "card-columns": "b-Fh",
 "accordion": "b-Gh",
 "breadcrumb": "b-Hh",
 "breadcrumb-item": "b-Ih",
 "pagination": "b-Jh",
 "page-link": "b-Kh",
 "page-item": "b-Lh",
 "pagination-lg": "b-Mh",
 "pagination-sm": "b-Nh",
 "badge": "b-Oh",
 "badge-pill": "b-Ph",
 "badge-primary": "b-Qh",
 "badge-secondary": "b-Rh",
 "badge-success": "b-Sh",
 "badge-info": "b-Th",
 "badge-warning": "b-Uh",
 "badge-danger": "b-Vh",
 "badge-light": "b-Wh",
 "badge-dark": "b-Xh",
 "jumbotron": "b-Yh",
 "jumbotron-fluid": "b-Zh",
 "alert": "b-ai",
 "alert-heading": "b-bi",
 "alert-link": "b-ci",
 "alert-dismissible": "b-di",
 "close": "b-ei",
 "alert-primary": "b-fi",
 "alert-secondary": "b-gi",
 "alert-success": "b-hi",
 "alert-info": "b-ii",
 "alert-warning": "b-ji",
 "alert-danger": "b-ki",
 "alert-light": "b-li",
 "alert-dark": "b-mi",
 "progress": "b-ni",
 "progress-bar": "b-oi",
 "progress-bar-striped": "b-pi",
 "progress-bar-animated": "b-qi",
 "media": "b-ri",
 "media-body": "b-si",
 "list-group-item-action": "b-ti",
 "list-group-horizontal": "b-ui",
 "list-group-horizontal-sm": "b-vi",
 "list-group-horizontal-md": "b-wi",
 "list-group-horizontal-lg": "b-xi",
 "list-group-horizontal-xl": "b-yi",
 "list-group-flush": "b-zi",
 "list-group-item-primary": "b-Ai",
 "list-group-item-secondary": "b-Bi",
 "list-group-item-success": "b-Ci",
 "list-group-item-info": "b-Di",
 "list-group-item-warning": "b-Ei",
 "list-group-item-danger": "b-Fi",
 "list-group-item-light": "b-Gi",
 "list-group-item-dark": "b-Hi",
 "toast": "b-Ii",
 "hide": "b-Ki",
 "toast-header": "b-Li",
 "toast-body": "b-Mi",
 "modal-open": "b-Ni",
 "modal": "b-Oi",
 "modal-dialog": "b-Pi",
 "modal-dialog-scrollable": "b-Qi",
 "modal-content": "b-Ri",
 "modal-header": "b-Si",
 "modal-footer": "b-Ti",
 "modal-body": "b-Ui",
 "modal-dialog-centered": "b-Vi",
 "modal-backdrop": "b-Wi",
 "modal-title": "b-Xi",
 "modal-scrollbar-measure": "b-Yi",
 "modal-sm": "b-Zi",
 "modal-lg": "b-aj",
 "modal-xl": "b-bj",
 "popover": "b-kj",
 "bs-popover-top": "b-lj",
 "bs-popover-auto": "b-mj",
 "bs-popover-right": "b-nj",
 "bs-popover-bottom": "b-oj",
 "popover-header": "b-pj",
 "bs-popover-left": "b-qj",
 "popover-body": "b-rj",
 "spinner-border": "b-Hj",
 "spinner-border-sm": "b-Ij",
 "spinner-grow": "b-Jj",
 "spinner-grow-sm": "b-Kj",
 "align-baseline": "b-Lj",
 "align-top": "b-Mj",
 "align-middle": "b-Nj",
 "align-bottom": "b-Oj",
 "align-text-bottom": "b-Pj",
 "align-text-top": "b-Qj",
 "bg-primary": "b-Rj",
 "bg-secondary": "b-Sj",
 "bg-success": "b-Tj",
 "bg-info": "b-Uj",
 "bg-warning": "b-Vj",
 "bg-danger": "b-Wj",
 "bg-light": "b-Xj",
 "bg-dark": "b-Yj",
 "bg-white": "b-Zj",
 "bg-transparent": "b-ak",
 "border": "b-bk",
 "border-top": "b-ck",
 "border-right": "b-dk",
 "border-bottom": "b-ek",
 "border-left": "b-fk",
 "border-0": "b-gk",
 "border-top-0": "b-hk",
 "border-right-0": "b-ik",
 "border-bottom-0": "b-jk",
 "border-left-0": "b-kk",
 "border-primary": "b-lk",
 "border-secondary": "b-mk",
 "border-success": "b-nk",
 "border-info": "b-ok",
 "border-warning": "b-pk",
 "border-danger": "b-qk",
 "border-light": "b-rk",
 "border-dark": "b-sk",
 "border-white": "b-tk",
 "rounded-sm": "b-uk",
 "rounded": "b-vk",
 "rounded-top": "b-wk",
 "rounded-right": "b-xk",
 "rounded-bottom": "b-yk",
 "rounded-left": "b-zk",
 "rounded-lg": "b-Ak",
 "rounded-circle": "b-Bk",
 "rounded-pill": "b-Ck",
 "rounded-0": "b-Dk",
 "clearfix": "b-Ek",
 "d-none": "b-Fk",
 "d-inline": "b-Gk",
 "d-inline-block": "b-Hk",
 "d-block": "b-Ik",
 "d-table": "b-Jk",
 "d-table-row": "b-Kk",
 "d-table-cell": "b-Lk",
 "d-flex": "b-Mk",
 "d-inline-flex": "b-Nk",
 "d-sm-none": "b-Ok",
 "d-sm-inline": "b-Pk",
 "d-sm-inline-block": "b-Qk",
 "d-sm-block": "b-Rk",
 "d-sm-table": "b-Sk",
 "d-sm-table-row": "b-Tk",
 "d-sm-table-cell": "b-Uk",
 "d-sm-flex": "b-Vk",
 "d-sm-inline-flex": "b-Wk",
 "d-md-none": "b-Xk",
 "d-md-inline": "b-Yk",
 "d-md-inline-block": "b-Zk",
 "d-md-block": "b-al",
 "d-md-table": "b-bl",
 "d-md-table-row": "b-cl",
 "d-md-table-cell": "b-dl",
 "d-md-flex": "b-el",
 "d-md-inline-flex": "b-fl",
 "d-lg-none": "b-gl",
 "d-lg-inline": "b-hl",
 "d-lg-inline-block": "b-il",
 "d-lg-block": "b-jl",
 "d-lg-table": "b-kl",
 "d-lg-table-row": "b-ll",
 "d-lg-table-cell": "b-ml",
 "d-lg-flex": "b-nl",
 "d-lg-inline-flex": "b-ol",
 "d-xl-none": "b-pl",
 "d-xl-inline": "b-ql",
 "d-xl-inline-block": "b-rl",
 "d-xl-block": "b-sl",
 "d-xl-table": "b-tl",
 "d-xl-table-row": "b-ul",
 "d-xl-table-cell": "b-vl",
 "d-xl-flex": "b-wl",
 "d-xl-inline-flex": "b-xl",
 "d-print-none": "b-yl",
 "d-print-inline": "b-zl",
 "d-print-inline-block": "b-Al",
 "d-print-block": "b-Bl",
 "d-print-table": "b-Cl",
 "d-print-table-row": "b-Dl",
 "d-print-table-cell": "b-El",
 "d-print-flex": "b-Fl",
 "d-print-inline-flex": "b-Gl",
 "embed-responsive": "b-Hl",
 "embed-responsive-item": "b-Il",
 "embed-responsive-21by9": "b-Jl",
 "embed-responsive-16by9": "b-Kl",
 "embed-responsive-4by3": "b-Ll",
 "embed-responsive-1by1": "b-Ml",
 "flex-row": "b-Nl",
 "flex-column": "b-Ol",
 "flex-row-reverse": "b-Pl",
 "flex-column-reverse": "b-Ql",
 "flex-wrap": "b-Rl",
 "flex-nowrap": "b-Sl",
 "flex-wrap-reverse": "b-Tl",
 "flex-fill": "b-Ul",
 "flex-grow-0": "b-Vl",
 "flex-grow-1": "b-Wl",
 "flex-shrink-0": "b-Xl",
 "flex-shrink-1": "b-Yl",
 "justify-content-start": "b-Zl",
 "justify-content-end": "b-am",
 "justify-content-center": "b-bm",
 "justify-content-between": "b-cm",
 "justify-content-around": "b-dm",
 "align-items-start": "b-em",
 "align-items-end": "b-fm",
 "align-items-center": "b-gm",
 "align-items-baseline": "b-hm",
 "align-items-stretch": "b-im",
 "align-content-start": "b-jm",
 "align-content-end": "b-km",
 "align-content-center": "b-lm",
 "align-content-between": "b-mm",
 "align-content-around": "b-nm",
 "align-content-stretch": "b-om",
 "align-self-auto": "b-pm",
 "align-self-start": "b-qm",
 "align-self-end": "b-rm",
 "align-self-center": "b-sm",
 "align-self-baseline": "b-tm",
 "align-self-stretch": "b-um",
 "flex-sm-row": "b-vm",
 "flex-sm-column": "b-wm",
 "flex-sm-row-reverse": "b-xm",
 "flex-sm-column-reverse": "b-ym",
 "flex-sm-wrap": "b-zm",
 "flex-sm-nowrap": "b-Am",
 "flex-sm-wrap-reverse": "b-Bm",
 "flex-sm-fill": "b-Cm",
 "flex-sm-grow-0": "b-Dm",
 "flex-sm-grow-1": "b-Em",
 "flex-sm-shrink-0": "b-Fm",
 "flex-sm-shrink-1": "b-Gm",
 "justify-content-sm-start": "b-Hm",
 "justify-content-sm-end": "b-Im",
 "justify-content-sm-center": "b-Jm",
 "justify-content-sm-between": "b-Km",
 "justify-content-sm-around": "b-Lm",
 "align-items-sm-start": "b-Mm",
 "align-items-sm-end": "b-Nm",
 "align-items-sm-center": "b-Om",
 "align-items-sm-baseline": "b-Pm",
 "align-items-sm-stretch": "b-Qm",
 "align-content-sm-start": "b-Rm",
 "align-content-sm-end": "b-Sm",
 "align-content-sm-center": "b-Tm",
 "align-content-sm-between": "b-Um",
 "align-content-sm-around": "b-Vm",
 "align-content-sm-stretch": "b-Wm",
 "align-self-sm-auto": "b-Xm",
 "align-self-sm-start": "b-Ym",
 "align-self-sm-end": "b-Zm",
 "align-self-sm-center": "b-an",
 "align-self-sm-baseline": "b-bn",
 "align-self-sm-stretch": "b-cn",
 "flex-md-row": "b-dn",
 "flex-md-column": "b-en",
 "flex-md-row-reverse": "b-fn",
 "flex-md-column-reverse": "b-gn",
 "flex-md-wrap": "b-hn",
 "flex-md-nowrap": "b-in",
 "flex-md-wrap-reverse": "b-jn",
 "flex-md-fill": "b-kn",
 "flex-md-grow-0": "b-ln",
 "flex-md-grow-1": "b-mn",
 "flex-md-shrink-0": "b-nn",
 "flex-md-shrink-1": "b-on",
 "justify-content-md-start": "b-pn",
 "justify-content-md-end": "b-qn",
 "justify-content-md-center": "b-rn",
 "justify-content-md-between": "b-sn",
 "justify-content-md-around": "b-tn",
 "align-items-md-start": "b-un",
 "align-items-md-end": "b-vn",
 "align-items-md-center": "b-wn",
 "align-items-md-baseline": "b-xn",
 "align-items-md-stretch": "b-yn",
 "align-content-md-start": "b-zn",
 "align-content-md-end": "b-An",
 "align-content-md-center": "b-Bn",
 "align-content-md-between": "b-Cn",
 "align-content-md-around": "b-Dn",
 "align-content-md-stretch": "b-En",
 "align-self-md-auto": "b-Fn",
 "align-self-md-start": "b-Gn",
 "align-self-md-end": "b-Hn",
 "align-self-md-center": "b-In",
 "align-self-md-baseline": "b-Jn",
 "align-self-md-stretch": "b-Kn",
 "flex-lg-row": "b-Ln",
 "flex-lg-column": "b-Mn",
 "flex-lg-row-reverse": "b-Nn",
 "flex-lg-column-reverse": "b-On",
 "flex-lg-wrap": "b-Pn",
 "flex-lg-nowrap": "b-Qn",
 "flex-lg-wrap-reverse": "b-Rn",
 "flex-lg-fill": "b-Sn",
 "flex-lg-grow-0": "b-Tn",
 "flex-lg-grow-1": "b-Un",
 "flex-lg-shrink-0": "b-Vn",
 "flex-lg-shrink-1": "b-Wn",
 "justify-content-lg-start": "b-Xn",
 "justify-content-lg-end": "b-Yn",
 "justify-content-lg-center": "b-Zn",
 "justify-content-lg-between": "b-ao",
 "justify-content-lg-around": "b-bo",
 "align-items-lg-start": "b-co",
 "align-items-lg-end": "b-do",
 "align-items-lg-center": "b-eo",
 "align-items-lg-baseline": "b-fo",
 "align-items-lg-stretch": "b-go",
 "align-content-lg-start": "b-ho",
 "align-content-lg-end": "b-io",
 "align-content-lg-center": "b-jo",
 "align-content-lg-between": "b-ko",
 "align-content-lg-around": "b-lo",
 "align-content-lg-stretch": "b-mo",
 "align-self-lg-auto": "b-no",
 "align-self-lg-start": "b-oo",
 "align-self-lg-end": "b-po",
 "align-self-lg-center": "b-qo",
 "align-self-lg-baseline": "b-ro",
 "align-self-lg-stretch": "b-so",
 "flex-xl-row": "b-to",
 "flex-xl-column": "b-uo",
 "flex-xl-row-reverse": "b-vo",
 "flex-xl-column-reverse": "b-wo",
 "flex-xl-wrap": "b-xo",
 "flex-xl-nowrap": "b-yo",
 "flex-xl-wrap-reverse": "b-zo",
 "flex-xl-fill": "b-Ao",
 "flex-xl-grow-0": "b-Bo",
 "flex-xl-grow-1": "b-Co",
 "flex-xl-shrink-0": "b-Do",
 "flex-xl-shrink-1": "b-Eo",
 "justify-content-xl-start": "b-Fo",
 "justify-content-xl-end": "b-Go",
 "justify-content-xl-center": "b-Ho",
 "justify-content-xl-between": "b-Io",
 "justify-content-xl-around": "b-Jo",
 "align-items-xl-start": "b-Ko",
 "align-items-xl-end": "b-Lo",
 "align-items-xl-center": "b-Mo",
 "align-items-xl-baseline": "b-No",
 "align-items-xl-stretch": "b-Oo",
 "align-content-xl-start": "b-Po",
 "align-content-xl-end": "b-Qo",
 "align-content-xl-center": "b-Ro",
 "align-content-xl-between": "b-So",
 "align-content-xl-around": "b-To",
 "align-content-xl-stretch": "b-Uo",
 "align-self-xl-auto": "b-Vo",
 "align-self-xl-start": "b-Wo",
 "align-self-xl-end": "b-Xo",
 "align-self-xl-center": "b-Yo",
 "align-self-xl-baseline": "b-Zo",
 "align-self-xl-stretch": "b-ap",
 "float-left": "b-bp",
 "float-right": "b-cp",
 "float-none": "b-dp",
 "float-sm-left": "b-ep",
 "float-sm-right": "b-fp",
 "float-sm-none": "b-gp",
 "float-md-left": "b-hp",
 "float-md-right": "b-ip",
 "float-md-none": "b-jp",
 "float-lg-left": "b-kp",
 "float-lg-right": "b-lp",
 "float-lg-none": "b-mp",
 "float-xl-left": "b-np",
 "float-xl-right": "b-op",
 "float-xl-none": "b-pp",
 "overflow-auto": "b-qp",
 "overflow-hidden": "b-rp",
 "position-static": "b-sp",
 "position-relative": "b-tp",
 "position-absolute": "b-up",
 "position-fixed": "b-vp",
 "position-sticky": "b-wp",
 "fixed-top": "b-xp",
 "fixed-bottom": "b-yp",
 "sticky-top": "b-zp",
 "sr-only": "b-Ap",
 "sr-only-focusable": "b-Bp",
 "shadow-sm": "b-Cp",
 "shadow": "b-Dp",
 "shadow-lg": "b-Ep",
 "shadow-none": "b-Fp",
 "w-25": "b-Gp",
 "w-50": "b-Hp",
 "w-75": "b-Ip",
 "w-100": "b-Jp",
 "w-auto": "b-Kp",
 "h-25": "b-Lp",
 "h-50": "b-Mp",
 "h-75": "b-Np",
 "h-100": "b-Op",
 "h-auto": "b-Pp",
 "mw-100": "b-Qp",
 "mh-100": "b-Rp",
 "min-vw-100": "b-Sp",
 "min-vh-100": "b-Tp",
 "vw-100": "b-Up",
 "vh-100": "b-Vp",
 "stretched-link": "b-Wp",
 "m-0": "b-Xp",
 "mt-0": "b-Yp",
 "my-0": "b-Zp",
 "mr-0": "b-aq",
 "mx-0": "b-bq",
 "mb-0": "b-cq",
 "ml-0": "b-dq",
 "m-1": "b-eq",
 "mt-1": "b-fq",
 "my-1": "b-gq",
 "mr-1": "b-hq",
 "mx-1": "b-iq",
 "mb-1": "b-jq",
 "ml-1": "b-kq",
 "m-2": "b-lq",
 "mt-2": "b-mq",
 "my-2": "b-nq",
 "mr-2": "b-oq",
 "mx-2": "b-pq",
 "mb-2": "b-qq",
 "ml-2": "b-rq",
 "m-3": "b-sq",
 "mt-3": "b-tq",
 "my-3": "b-uq",
 "mr-3": "b-vq",
 "mx-3": "b-wq",
 "mb-3": "b-xq",
 "ml-3": "b-yq",
 "m-4": "b-zq",
 "mt-4": "b-Aq",
 "my-4": "b-Bq",
 "mr-4": "b-Cq",
 "mx-4": "b-Dq",
 "mb-4": "b-Eq",
 "ml-4": "b-Fq",
 "m-5": "b-Gq",
 "mt-5": "b-Hq",
 "my-5": "b-Iq",
 "mr-5": "b-Jq",
 "mx-5": "b-Kq",
 "mb-5": "b-Lq",
 "ml-5": "b-Mq",
 "p-0": "b-Nq",
 "pt-0": "b-Oq",
 "py-0": "b-Pq",
 "pr-0": "b-Qq",
 "px-0": "b-Rq",
 "pb-0": "b-Sq",
 "pl-0": "b-Tq",
 "p-1": "b-Uq",
 "pt-1": "b-Vq",
 "py-1": "b-Wq",
 "pr-1": "b-Xq",
 "px-1": "b-Yq",
 "pb-1": "b-Zq",
 "pl-1": "b-ar",
 "p-2": "b-br",
 "pt-2": "b-cr",
 "py-2": "b-dr",
 "pr-2": "b-er",
 "px-2": "b-fr",
 "pb-2": "b-gr",
 "pl-2": "b-hr",
 "p-3": "b-ir",
 "pt-3": "b-jr",
 "py-3": "b-kr",
 "pr-3": "b-lr",
 "px-3": "b-mr",
 "pb-3": "b-nr",
 "pl-3": "b-or",
 "p-4": "b-pr",
 "pt-4": "b-qr",
 "py-4": "b-rr",
 "pr-4": "b-sr",
 "px-4": "b-tr",
 "pb-4": "b-ur",
 "pl-4": "b-vr",
 "p-5": "b-wr",
 "pt-5": "b-xr",
 "py-5": "b-yr",
 "pr-5": "b-zr",
 "px-5": "b-Ar",
 "pb-5": "b-Br",
 "pl-5": "b-Cr",
 "m-n1": "b-Dr",
 "mt-n1": "b-Er",
 "my-n1": "b-Fr",
 "mr-n1": "b-Gr",
 "mx-n1": "b-Hr",
 "mb-n1": "b-Ir",
 "ml-n1": "b-Jr",
 "m-n2": "b-Kr",
 "mt-n2": "b-Lr",
 "my-n2": "b-Mr",
 "mr-n2": "b-Nr",
 "mx-n2": "b-Or",
 "mb-n2": "b-Pr",
 "ml-n2": "b-Qr",
 "m-n3": "b-Rr",
 "mt-n3": "b-Sr",
 "my-n3": "b-Tr",
 "mr-n3": "b-Ur",
 "mx-n3": "b-Vr",
 "mb-n3": "b-Wr",
 "ml-n3": "b-Xr",
 "m-n4": "b-Yr",
 "mt-n4": "b-Zr",
 "my-n4": "b-as",
 "mr-n4": "b-bs",
 "mx-n4": "b-cs",
 "mb-n4": "b-ds",
 "ml-n4": "b-es",
 "m-n5": "b-fs",
 "mt-n5": "b-gs",
 "my-n5": "b-hs",
 "mr-n5": "b-is",
 "mx-n5": "b-js",
 "mb-n5": "b-ks",
 "ml-n5": "b-ls",
 "m-auto": "b-ms",
 "mt-auto": "b-ns",
 "my-auto": "b-os",
 "mr-auto": "b-ps",
 "mx-auto": "b-qs",
 "mb-auto": "b-rs",
 "ml-auto": "b-ss",
 "m-sm-0": "b-ts",
 "mt-sm-0": "b-us",
 "my-sm-0": "b-vs",
 "mr-sm-0": "b-ws",
 "mx-sm-0": "b-xs",
 "mb-sm-0": "b-ys",
 "ml-sm-0": "b-zs",
 "m-sm-1": "b-As",
 "mt-sm-1": "b-Bs",
 "my-sm-1": "b-Cs",
 "mr-sm-1": "b-Ds",
 "mx-sm-1": "b-Es",
 "mb-sm-1": "b-Fs",
 "ml-sm-1": "b-Gs",
 "m-sm-2": "b-Hs",
 "mt-sm-2": "b-Is",
 "my-sm-2": "b-Js",
 "mr-sm-2": "b-Ks",
 "mx-sm-2": "b-Ls",
 "mb-sm-2": "b-Ms",
 "ml-sm-2": "b-Ns",
 "m-sm-3": "b-Os",
 "mt-sm-3": "b-Ps",
 "my-sm-3": "b-Qs",
 "mr-sm-3": "b-Rs",
 "mx-sm-3": "b-Ss",
 "mb-sm-3": "b-Ts",
 "ml-sm-3": "b-Us",
 "m-sm-4": "b-Vs",
 "mt-sm-4": "b-Ws",
 "my-sm-4": "b-Xs",
 "mr-sm-4": "b-Ys",
 "mx-sm-4": "b-Zs",
 "mb-sm-4": "b-at",
 "ml-sm-4": "b-bt",
 "m-sm-5": "b-ct",
 "mt-sm-5": "b-dt",
 "my-sm-5": "b-et",
 "mr-sm-5": "b-ft",
 "mx-sm-5": "b-gt",
 "mb-sm-5": "b-ht",
 "ml-sm-5": "b-it",
 "p-sm-0": "b-jt",
 "pt-sm-0": "b-kt",
 "py-sm-0": "b-lt",
 "pr-sm-0": "b-mt",
 "px-sm-0": "b-nt",
 "pb-sm-0": "b-ot",
 "pl-sm-0": "b-pt",
 "p-sm-1": "b-qt",
 "pt-sm-1": "b-rt",
 "py-sm-1": "b-st",
 "pr-sm-1": "b-tt",
 "px-sm-1": "b-ut",
 "pb-sm-1": "b-vt",
 "pl-sm-1": "b-wt",
 "p-sm-2": "b-xt",
 "pt-sm-2": "b-yt",
 "py-sm-2": "b-zt",
 "pr-sm-2": "b-At",
 "px-sm-2": "b-Bt",
 "pb-sm-2": "b-Ct",
 "pl-sm-2": "b-Dt",
 "p-sm-3": "b-Et",
 "pt-sm-3": "b-Ft",
 "py-sm-3": "b-Gt",
 "pr-sm-3": "b-Ht",
 "px-sm-3": "b-It",
 "pb-sm-3": "b-Jt",
 "pl-sm-3": "b-Kt",
 "p-sm-4": "b-Lt",
 "pt-sm-4": "b-Mt",
 "py-sm-4": "b-Nt",
 "pr-sm-4": "b-Ot",
 "px-sm-4": "b-Pt",
 "pb-sm-4": "b-Qt",
 "pl-sm-4": "b-Rt",
 "p-sm-5": "b-St",
 "pt-sm-5": "b-Tt",
 "py-sm-5": "b-Ut",
 "pr-sm-5": "b-Vt",
 "px-sm-5": "b-Wt",
 "pb-sm-5": "b-Xt",
 "pl-sm-5": "b-Yt",
 "m-sm-n1": "b-Zt",
 "mt-sm-n1": "b-au",
 "my-sm-n1": "b-bu",
 "mr-sm-n1": "b-cu",
 "mx-sm-n1": "b-du",
 "mb-sm-n1": "b-eu",
 "ml-sm-n1": "b-fu",
 "m-sm-n2": "b-gu",
 "mt-sm-n2": "b-hu",
 "my-sm-n2": "b-iu",
 "mr-sm-n2": "b-ju",
 "mx-sm-n2": "b-ku",
 "mb-sm-n2": "b-lu",
 "ml-sm-n2": "b-mu",
 "m-sm-n3": "b-nu",
 "mt-sm-n3": "b-ou",
 "my-sm-n3": "b-pu",
 "mr-sm-n3": "b-qu",
 "mx-sm-n3": "b-ru",
 "mb-sm-n3": "b-su",
 "ml-sm-n3": "b-tu",
 "m-sm-n4": "b-uu",
 "mt-sm-n4": "b-vu",
 "my-sm-n4": "b-wu",
 "mr-sm-n4": "b-xu",
 "mx-sm-n4": "b-yu",
 "mb-sm-n4": "b-zu",
 "ml-sm-n4": "b-Au",
 "m-sm-n5": "b-Bu",
 "mt-sm-n5": "b-Cu",
 "my-sm-n5": "b-Du",
 "mr-sm-n5": "b-Eu",
 "mx-sm-n5": "b-Fu",
 "mb-sm-n5": "b-Gu",
 "ml-sm-n5": "b-Hu",
 "m-sm-auto": "b-Iu",
 "mt-sm-auto": "b-Ju",
 "my-sm-auto": "b-Ku",
 "mr-sm-auto": "b-Lu",
 "mx-sm-auto": "b-Mu",
 "mb-sm-auto": "b-Nu",
 "ml-sm-auto": "b-Ou",
 "m-md-0": "b-Pu",
 "mt-md-0": "b-Qu",
 "my-md-0": "b-Ru",
 "mr-md-0": "b-Su",
 "mx-md-0": "b-Tu",
 "mb-md-0": "b-Uu",
 "ml-md-0": "b-Vu",
 "m-md-1": "b-Wu",
 "mt-md-1": "b-Xu",
 "my-md-1": "b-Yu",
 "mr-md-1": "b-Zu",
 "mx-md-1": "b-av",
 "mb-md-1": "b-bv",
 "ml-md-1": "b-cv",
 "m-md-2": "b-dv",
 "mt-md-2": "b-ev",
 "my-md-2": "b-fv",
 "mr-md-2": "b-gv",
 "mx-md-2": "b-hv",
 "mb-md-2": "b-iv",
 "ml-md-2": "b-jv",
 "m-md-3": "b-kv",
 "mt-md-3": "b-lv",
 "my-md-3": "b-mv",
 "mr-md-3": "b-nv",
 "mx-md-3": "b-ov",
 "mb-md-3": "b-pv",
 "ml-md-3": "b-qv",
 "m-md-4": "b-rv",
 "mt-md-4": "b-sv",
 "my-md-4": "b-tv",
 "mr-md-4": "b-uv",
 "mx-md-4": "b-vv",
 "mb-md-4": "b-wv",
 "ml-md-4": "b-xv",
 "m-md-5": "b-yv",
 "mt-md-5": "b-zv",
 "my-md-5": "b-Av",
 "mr-md-5": "b-Bv",
 "mx-md-5": "b-Cv",
 "mb-md-5": "b-Dv",
 "ml-md-5": "b-Ev",
 "p-md-0": "b-Fv",
 "pt-md-0": "b-Gv",
 "py-md-0": "b-Hv",
 "pr-md-0": "b-Iv",
 "px-md-0": "b-Jv",
 "pb-md-0": "b-Kv",
 "pl-md-0": "b-Lv",
 "p-md-1": "b-Mv",
 "pt-md-1": "b-Nv",
 "py-md-1": "b-Ov",
 "pr-md-1": "b-Pv",
 "px-md-1": "b-Qv",
 "pb-md-1": "b-Rv",
 "pl-md-1": "b-Sv",
 "p-md-2": "b-Tv",
 "pt-md-2": "b-Uv",
 "py-md-2": "b-Vv",
 "pr-md-2": "b-Wv",
 "px-md-2": "b-Xv",
 "pb-md-2": "b-Yv",
 "pl-md-2": "b-Zv",
 "p-md-3": "b-aw",
 "pt-md-3": "b-bw",
 "py-md-3": "b-cw",
 "pr-md-3": "b-dw",
 "px-md-3": "b-ew",
 "pb-md-3": "b-fw",
 "pl-md-3": "b-gw",
 "p-md-4": "b-hw",
 "pt-md-4": "b-iw",
 "py-md-4": "b-jw",
 "pr-md-4": "b-kw",
 "px-md-4": "b-lw",
 "pb-md-4": "b-mw",
 "pl-md-4": "b-nw",
 "p-md-5": "b-ow",
 "pt-md-5": "b-pw",
 "py-md-5": "b-qw",
 "pr-md-5": "b-rw",
 "px-md-5": "b-sw",
 "pb-md-5": "b-tw",
 "pl-md-5": "b-uw",
 "m-md-n1": "b-vw",
 "mt-md-n1": "b-ww",
 "my-md-n1": "b-xw",
 "mr-md-n1": "b-yw",
 "mx-md-n1": "b-zw",
 "mb-md-n1": "b-Aw",
 "ml-md-n1": "b-Bw",
 "m-md-n2": "b-Cw",
 "mt-md-n2": "b-Dw",
 "my-md-n2": "b-Ew",
 "mr-md-n2": "b-Fw",
 "mx-md-n2": "b-Gw",
 "mb-md-n2": "b-Hw",
 "ml-md-n2": "b-Iw",
 "m-md-n3": "b-Jw",
 "mt-md-n3": "b-Kw",
 "my-md-n3": "b-Lw",
 "mr-md-n3": "b-Mw",
 "mx-md-n3": "b-Nw",
 "mb-md-n3": "b-Ow",
 "ml-md-n3": "b-Pw",
 "m-md-n4": "b-Qw",
 "mt-md-n4": "b-Rw",
 "my-md-n4": "b-Sw",
 "mr-md-n4": "b-Tw",
 "mx-md-n4": "b-Uw",
 "mb-md-n4": "b-Vw",
 "ml-md-n4": "b-Ww",
 "m-md-n5": "b-Xw",
 "mt-md-n5": "b-Yw",
 "my-md-n5": "b-Zw",
 "mr-md-n5": "b-ax",
 "mx-md-n5": "b-bx",
 "mb-md-n5": "b-cx",
 "ml-md-n5": "b-dx",
 "m-md-auto": "b-ex",
 "mt-md-auto": "b-fx",
 "my-md-auto": "b-gx",
 "mr-md-auto": "b-hx",
 "mx-md-auto": "b-ix",
 "mb-md-auto": "b-jx",
 "ml-md-auto": "b-kx",
 "m-lg-0": "b-lx",
 "mt-lg-0": "b-mx",
 "my-lg-0": "b-nx",
 "mr-lg-0": "b-ox",
 "mx-lg-0": "b-px",
 "mb-lg-0": "b-qx",
 "ml-lg-0": "b-rx",
 "m-lg-1": "b-sx",
 "mt-lg-1": "b-tx",
 "my-lg-1": "b-ux",
 "mr-lg-1": "b-vx",
 "mx-lg-1": "b-wx",
 "mb-lg-1": "b-xx",
 "ml-lg-1": "b-yx",
 "m-lg-2": "b-zx",
 "mt-lg-2": "b-Ax",
 "my-lg-2": "b-Bx",
 "mr-lg-2": "b-Cx",
 "mx-lg-2": "b-Dx",
 "mb-lg-2": "b-Ex",
 "ml-lg-2": "b-Fx",
 "m-lg-3": "b-Gx",
 "mt-lg-3": "b-Hx",
 "my-lg-3": "b-Ix",
 "mr-lg-3": "b-Jx",
 "mx-lg-3": "b-Kx",
 "mb-lg-3": "b-Lx",
 "ml-lg-3": "b-Mx",
 "m-lg-4": "b-Nx",
 "mt-lg-4": "b-Ox",
 "my-lg-4": "b-Px",
 "mr-lg-4": "b-Qx",
 "mx-lg-4": "b-Rx",
 "mb-lg-4": "b-Sx",
 "ml-lg-4": "b-Tx",
 "m-lg-5": "b-Ux",
 "mt-lg-5": "b-Vx",
 "my-lg-5": "b-Wx",
 "mr-lg-5": "b-Xx",
 "mx-lg-5": "b-Yx",
 "mb-lg-5": "b-Zx",
 "ml-lg-5": "b-ay",
 "p-lg-0": "b-by",
 "pt-lg-0": "b-cy",
 "py-lg-0": "b-dy",
 "pr-lg-0": "b-ey",
 "px-lg-0": "b-fy",
 "pb-lg-0": "b-gy",
 "pl-lg-0": "b-hy",
 "p-lg-1": "b-iy",
 "pt-lg-1": "b-jy",
 "py-lg-1": "b-ky",
 "pr-lg-1": "b-ly",
 "px-lg-1": "b-my",
 "pb-lg-1": "b-ny",
 "pl-lg-1": "b-oy",
 "p-lg-2": "b-py",
 "pt-lg-2": "b-qy",
 "py-lg-2": "b-ry",
 "pr-lg-2": "b-sy",
 "px-lg-2": "b-ty",
 "pb-lg-2": "b-uy",
 "pl-lg-2": "b-vy",
 "p-lg-3": "b-wy",
 "pt-lg-3": "b-xy",
 "py-lg-3": "b-yy",
 "pr-lg-3": "b-zy",
 "px-lg-3": "b-Ay",
 "pb-lg-3": "b-By",
 "pl-lg-3": "b-Cy",
 "p-lg-4": "b-Dy",
 "pt-lg-4": "b-Ey",
 "py-lg-4": "b-Fy",
 "pr-lg-4": "b-Gy",
 "px-lg-4": "b-Hy",
 "pb-lg-4": "b-Iy",
 "pl-lg-4": "b-Jy",
 "p-lg-5": "b-Ky",
 "pt-lg-5": "b-Ly",
 "py-lg-5": "b-My",
 "pr-lg-5": "b-Ny",
 "px-lg-5": "b-Oy",
 "pb-lg-5": "b-Py",
 "pl-lg-5": "b-Qy",
 "m-lg-n1": "b-Ry",
 "mt-lg-n1": "b-Sy",
 "my-lg-n1": "b-Ty",
 "mr-lg-n1": "b-Uy",
 "mx-lg-n1": "b-Vy",
 "mb-lg-n1": "b-Wy",
 "ml-lg-n1": "b-Xy",
 "m-lg-n2": "b-Yy",
 "mt-lg-n2": "b-Zy",
 "my-lg-n2": "b-az",
 "mr-lg-n2": "b-bz",
 "mx-lg-n2": "b-cz",
 "mb-lg-n2": "b-dz",
 "ml-lg-n2": "b-ez",
 "m-lg-n3": "b-fz",
 "mt-lg-n3": "b-gz",
 "my-lg-n3": "b-hz",
 "mr-lg-n3": "b-iz",
 "mx-lg-n3": "b-jz",
 "mb-lg-n3": "b-kz",
 "ml-lg-n3": "b-lz",
 "m-lg-n4": "b-mz",
 "mt-lg-n4": "b-nz",
 "my-lg-n4": "b-oz",
 "mr-lg-n4": "b-pz",
 "mx-lg-n4": "b-qz",
 "mb-lg-n4": "b-rz",
 "ml-lg-n4": "b-sz",
 "m-lg-n5": "b-tz",
 "mt-lg-n5": "b-uz",
 "my-lg-n5": "b-vz",
 "mr-lg-n5": "b-wz",
 "mx-lg-n5": "b-xz",
 "mb-lg-n5": "b-yz",
 "ml-lg-n5": "b-zz",
 "m-lg-auto": "b-Az",
 "mt-lg-auto": "b-Bz",
 "my-lg-auto": "b-Cz",
 "mr-lg-auto": "b-Dz",
 "mx-lg-auto": "b-Ez",
 "mb-lg-auto": "b-Fz",
 "ml-lg-auto": "b-Gz",
 "m-xl-0": "b-Hz",
 "mt-xl-0": "b-Iz",
 "my-xl-0": "b-Jz",
 "mr-xl-0": "b-Kz",
 "mx-xl-0": "b-Lz",
 "mb-xl-0": "b-Mz",
 "ml-xl-0": "b-Nz",
 "m-xl-1": "b-Oz",
 "mt-xl-1": "b-Pz",
 "my-xl-1": "b-Qz",
 "mr-xl-1": "b-Rz",
 "mx-xl-1": "b-Sz",
 "mb-xl-1": "b-Tz",
 "ml-xl-1": "b-Uz",
 "m-xl-2": "b-Vz",
 "mt-xl-2": "b-Wz",
 "my-xl-2": "b-Xz",
 "mr-xl-2": "b-Yz",
 "mx-xl-2": "b-Zz",
 "mb-xl-2": "b-aA",
 "ml-xl-2": "b-bA",
 "m-xl-3": "b-cA",
 "mt-xl-3": "b-dA",
 "my-xl-3": "b-eA",
 "mr-xl-3": "b-fA",
 "mx-xl-3": "b-gA",
 "mb-xl-3": "b-hA",
 "ml-xl-3": "b-iA",
 "m-xl-4": "b-jA",
 "mt-xl-4": "b-kA",
 "my-xl-4": "b-lA",
 "mr-xl-4": "b-mA",
 "mx-xl-4": "b-nA",
 "mb-xl-4": "b-oA",
 "ml-xl-4": "b-pA",
 "m-xl-5": "b-qA",
 "mt-xl-5": "b-rA",
 "my-xl-5": "b-sA",
 "mr-xl-5": "b-tA",
 "mx-xl-5": "b-uA",
 "mb-xl-5": "b-vA",
 "ml-xl-5": "b-wA",
 "p-xl-0": "b-xA",
 "pt-xl-0": "b-yA",
 "py-xl-0": "b-zA",
 "pr-xl-0": "b-AA",
 "px-xl-0": "b-BA",
 "pb-xl-0": "b-CA",
 "pl-xl-0": "b-DA",
 "p-xl-1": "b-EA",
 "pt-xl-1": "b-FA",
 "py-xl-1": "b-GA",
 "pr-xl-1": "b-HA",
 "px-xl-1": "b-IA",
 "pb-xl-1": "b-JA",
 "pl-xl-1": "b-KA",
 "p-xl-2": "b-LA",
 "pt-xl-2": "b-MA",
 "py-xl-2": "b-NA",
 "pr-xl-2": "b-OA",
 "px-xl-2": "b-PA",
 "pb-xl-2": "b-QA",
 "pl-xl-2": "b-RA",
 "p-xl-3": "b-SA",
 "pt-xl-3": "b-TA",
 "py-xl-3": "b-UA",
 "pr-xl-3": "b-VA",
 "px-xl-3": "b-WA",
 "pb-xl-3": "b-XA",
 "pl-xl-3": "b-YA",
 "p-xl-4": "b-ZA",
 "pt-xl-4": "b-aB",
 "py-xl-4": "b-bB",
 "pr-xl-4": "b-cB",
 "px-xl-4": "b-dB",
 "pb-xl-4": "b-eB",
 "pl-xl-4": "b-fB",
 "p-xl-5": "b-gB",
 "pt-xl-5": "b-hB",
 "py-xl-5": "b-iB",
 "pr-xl-5": "b-jB",
 "px-xl-5": "b-kB",
 "pb-xl-5": "b-lB",
 "pl-xl-5": "b-mB",
 "m-xl-n1": "b-nB",
 "mt-xl-n1": "b-oB",
 "my-xl-n1": "b-pB",
 "mr-xl-n1": "b-qB",
 "mx-xl-n1": "b-rB",
 "mb-xl-n1": "b-sB",
 "ml-xl-n1": "b-tB",
 "m-xl-n2": "b-uB",
 "mt-xl-n2": "b-vB",
 "my-xl-n2": "b-wB",
 "mr-xl-n2": "b-xB",
 "mx-xl-n2": "b-yB",
 "mb-xl-n2": "b-zB",
 "ml-xl-n2": "b-AB",
 "m-xl-n3": "b-BB",
 "mt-xl-n3": "b-CB",
 "my-xl-n3": "b-DB",
 "mr-xl-n3": "b-EB",
 "mx-xl-n3": "b-FB",
 "mb-xl-n3": "b-GB",
 "ml-xl-n3": "b-HB",
 "m-xl-n4": "b-IB",
 "mt-xl-n4": "b-JB",
 "my-xl-n4": "b-KB",
 "mr-xl-n4": "b-LB",
 "mx-xl-n4": "b-MB",
 "mb-xl-n4": "b-NB",
 "ml-xl-n4": "b-OB",
 "m-xl-n5": "b-PB",
 "mt-xl-n5": "b-QB",
 "my-xl-n5": "b-RB",
 "mr-xl-n5": "b-SB",
 "mx-xl-n5": "b-TB",
 "mb-xl-n5": "b-UB",
 "ml-xl-n5": "b-VB",
 "m-xl-auto": "b-WB",
 "mt-xl-auto": "b-XB",
 "my-xl-auto": "b-YB",
 "mr-xl-auto": "b-ZB",
 "mx-xl-auto": "b-aC",
 "mb-xl-auto": "b-bC",
 "ml-xl-auto": "b-cC",
 "text-monospace": "b-dC",
 "text-justify": "b-eC",
 "text-wrap": "b-fC",
 "text-nowrap": "b-gC",
 "text-truncate": "b-hC",
 "text-left": "b-iC",
 "text-right": "b-jC",
 "text-center": "b-kC",
 "text-sm-left": "b-lC",
 "text-sm-right": "b-mC",
 "text-sm-center": "b-nC",
 "text-md-left": "b-oC",
 "text-md-right": "b-pC",
 "text-md-center": "b-qC",
 "text-lg-left": "b-rC",
 "text-lg-right": "b-sC",
 "text-lg-center": "b-tC",
 "text-xl-left": "b-uC",
 "text-xl-right": "b-vC",
 "text-xl-center": "b-wC",
 "text-lowercase": "b-xC",
 "text-uppercase": "b-yC",
 "text-capitalize": "b-zC",
 "font-weight-light": "b-AC",
 "font-weight-lighter": "b-BC",
 "font-weight-normal": "b-CC",
 "font-weight-bold": "b-DC",
 "font-weight-bolder": "b-EC",
 "font-italic": "b-FC",
 "text-white": "b-GC",
 "text-primary": "b-HC",
 "text-secondary": "b-IC",
 "text-success": "b-JC",
 "text-info": "b-KC",
 "text-warning": "b-LC",
 "text-danger": "b-MC",
 "text-light": "b-NC",
 "text-dark": "b-OC",
 "text-body": "b-PC",
 "text-muted": "b-QC",
 "text-black-50": "b-RC",
 "text-white-50": "b-SC",
 "text-hide": "b-TC",
 "text-decoration-none": "b-UC",
 "text-break": "b-VC",
 "text-reset": "b-WC",
 "visible": "b-XC",
 "invisible": "b-YC",
 "Inter900Critical": "-c4b19",
 "Tag": "-c1010",
 "TipRow": "-b3f41",
 "SwapeeButton": "-d5203",
 "MySwapeeButton": "-b51be",
 "RegionExample": "-h00ce",
 "RegionSelector": "-fcf97",
 "Debug": "-a6039",
 "RegionPing": "-a070a",
 "BlogFigIm": "-b8716",
 "BlogImage": "-e37d3",
 "TableContainer": "-hb94a",
 "TableRow": "-c5e7a",
 "FirstRow": "-gf904",
 "TitleCol": "-h407d",
 "Comment": "-abe84",
 "Fig": "-a9fa8",
 "WideFluid": "-c033e",
 "FooterBg": "-d47cd",
 "FooterCo": "-i7f40",
 "Wide": "-e7c77",
 "MenuCo": "-b4ac9",
 "Col": "-f849b",
 "DarkSecondary": "-e6b6e",
 "FS14": "-ie99d",
 "FS500": "-e43bd",
 "SubMenuCo": "-e89b3",
 "Hex": "-j2640",
 "SwapeeMe": "-ec807"
}