{
 "1": [
  {
   "name": "AbstractOfferExchangeInfoRow",
   "path": "generated/maurice/circuits/offer-exchange-info-row/OfferExchangeInfoRow.mvc/gen/AbstractOfferExchangeInfoRow/index.js",
   "type": "xyz.swapee.wc.AbstractOfferExchangeInfoRow"
  }
 ],
 "3": [
  {
   "name": "OfferExchangeInfoRowPort",
   "path": "generated/maurice/circuits/offer-exchange-info-row/OfferExchangeInfoRow.mvc/gen/OfferExchangeInfoRowPort/index.js",
   "type": "xyz.swapee.wc.OfferExchangeInfoRowPort"
  }
 ],
 "4": [
  {
   "name": "AbstractOfferExchangeInfoRowController",
   "path": "generated/maurice/circuits/offer-exchange-info-row/OfferExchangeInfoRow.mvc/gen/AbstractOfferExchangeInfoRowController/index.js",
   "type": "xyz.swapee.wc.AbstractOfferExchangeInfoRowController"
  }
 ],
 "10": [
  {
   "name": "OfferExchangeInfoRowHtmlComponent",
   "path": "generated/maurice/circuits/offer-exchange-info-row/OfferExchangeInfoRow.mvc/src/OfferExchangeInfoRowHtmlComponent/index.js",
   "type": "xyz.swapee.wc.OfferExchangeInfoRowHtmlComponent"
  }
 ],
 "11": [
  {
   "name": "OfferExchangeInfoRowBuffer",
   "path": "generated/maurice/circuits/offer-exchange-info-row/OfferExchangeInfoRow.mvc/gen/OfferExchangeInfoRowBuffer/index.js",
   "type": "xyz.swapee.wc.OfferExchangeInfoRowBuffer"
  }
 ],
 "30": [
  {
   "name": "AbstractOfferExchangeInfoRowComputer",
   "path": "generated/maurice/circuits/offer-exchange-info-row/OfferExchangeInfoRow.mvc/gen/AbstractOfferExchangeInfoRowComputer/index.js",
   "type": "xyz.swapee.wc.AbstractOfferExchangeInfoRowComputer"
  }
 ],
 "61": [
  {
   "name": "OfferExchangeInfoRowController",
   "path": "generated/maurice/circuits/offer-exchange-info-row/OfferExchangeInfoRow.mvc/src/OfferExchangeInfoRowHtmlController/index.js",
   "type": "xyz.swapee.wc.back.OfferExchangeInfoRowController"
  }
 ]
}