{
 "1": [
  {
   "name": "AbstractSwapeeButton",
   "path": "generated/maurice/circuits/swapee-button/SwapeeButton.mvc/gen/AbstractSwapeeButton/index.js",
   "type": "xyz.swapee.wc.AbstractSwapeeButton"
  }
 ],
 "3": [
  {
   "name": "SwapeeButtonPort",
   "path": "generated/maurice/circuits/swapee-button/SwapeeButton.mvc/gen/SwapeeButtonPort/index.js",
   "type": "xyz.swapee.wc.SwapeeButtonPort"
  }
 ],
 "4": [
  {
   "name": "AbstractSwapeeButtonController",
   "path": "generated/maurice/circuits/swapee-button/SwapeeButton.mvc/gen/AbstractSwapeeButtonController/index.js",
   "type": "xyz.swapee.wc.AbstractSwapeeButtonController"
  }
 ],
 "10": [
  {
   "name": "SwapeeButtonHtmlComponent",
   "path": "generated/maurice/circuits/swapee-button/SwapeeButton.mvc/src/SwapeeButtonHtmlComponent/index.js",
   "type": "xyz.swapee.wc.SwapeeButtonHtmlComponent"
  }
 ],
 "11": [
  {
   "name": "SwapeeButtonBuffer",
   "path": "generated/maurice/circuits/swapee-button/SwapeeButton.mvc/gen/SwapeeButtonBuffer/index.js",
   "type": "xyz.swapee.wc.SwapeeButtonBuffer"
  }
 ],
 "30": [
  {
   "name": "AbstractSwapeeButtonComputer",
   "path": "generated/maurice/circuits/swapee-button/SwapeeButton.mvc/gen/AbstractSwapeeButtonComputer/index.js",
   "type": "xyz.swapee.wc.AbstractSwapeeButtonComputer"
  }
 ],
 "61": [
  {
   "name": "SwapeeButtonController",
   "path": "generated/maurice/circuits/swapee-button/SwapeeButton.mvc/src/SwapeeButtonHtmlController/index.js",
   "type": "xyz.swapee.wc.back.SwapeeButtonController"
  }
 ]
}