{
 "c1": "./chunks/1.js",
 "c2": "./chunks/2.js",
 "c3": "./chunks/3.js",
 "c5": "./chunks/5.js",
 "c6": "./chunks/6.js",
 "c7": "./chunks/7.js",
 "c9": "./chunks/9.js",
 "c10": "./chunks/10.js",
 "c12": "./chunks/12.js",
 "c13": "./chunks/13.js",
 "c15": "./chunks/15.js",
 "c17": "./chunks/17.js",
 "c19": "./chunks/19.js",
 "c21": "./chunks/21.js"
}