{
 "lastId": 40,
 "interfaces": {
  "xyz.swapee.wc.IFileTreeComputer": {
   "id": 34906682501,
   "symbols": {},
   "methods": {
    "adaptFiles": 1,
    "compute": 2,
    "adaptCurrentFilePath": 3,
    "adaptFilesRotor": 4
   }
  },
  "xyz.swapee.wc.FileTreeMemoryPQs": {
   "id": 34906682502,
   "symbols": {},
   "methods": {
    "constructor": 1
   }
  },
  "xyz.swapee.wc.IFileTreeOuterCore": {
   "id": 34906682503,
   "symbols": {},
   "methods": {}
  },
  "xyz.swapee.wc.FileTreeInputsPQs": {
   "id": 34906682504,
   "symbols": {},
   "methods": {
    "constructor": 1
   }
  },
  "xyz.swapee.wc.IFileTreePort": {
   "id": 34906682505,
   "symbols": {},
   "methods": {
    "resetPort": 1,
    "resetFileTreePort": 2
   }
  },
  "xyz.swapee.wc.IFileTreePortInterface": {
   "id": 34906682506,
   "symbols": {},
   "methods": {}
  },
  "xyz.swapee.wc.FileTreeCachePQs": {
   "id": 34906682507,
   "symbols": {},
   "methods": {
    "constructor": 1
   }
  },
  "xyz.swapee.wc.IFileTreeCore": {
   "id": 34906682508,
   "symbols": {},
   "methods": {
    "resetCore": 1,
    "resetFileTreeCore": 2
   }
  },
  "xyz.swapee.wc.IFileTreeProcessor": {
   "id": 34906682509,
   "symbols": {},
   "methods": {}
  },
  "xyz.swapee.wc.IFileTree": {
   "id": 349066825010,
   "symbols": {},
   "methods": {}
  },
  "xyz.swapee.wc.IFileTreeBuffer": {
   "id": 349066825011,
   "symbols": {},
   "methods": {}
  },
  "xyz.swapee.wc.IFileTreeHtmlComponent": {
   "id": 349066825012,
   "symbols": {},
   "methods": {}
  },
  "xyz.swapee.wc.IFileTreeElement": {
   "id": 349066825013,
   "symbols": {},
   "methods": {
    "solder": 1,
    "render": 2,
    "server": 3,
    "inducer": 4,
    "build": 5,
    "buildFileEditor": 6,
    "short": 7
   }
  },
  "xyz.swapee.wc.IFileTreeElementPort": {
   "id": 349066825014,
   "symbols": {},
   "methods": {}
  },
  "xyz.swapee.wc.IFileTreeGeneratorHyperslice": {
   "id": 349066825015,
   "symbols": {},
   "methods": {}
  },
  "xyz.swapee.wc.IFileTreeGeneratorBindingHyperslice": {
   "id": 349066825016,
   "symbols": {},
   "methods": {}
  },
  "xyz.swapee.wc.IFileTreeGenerator": {
   "id": 349066825017,
   "symbols": {},
   "methods": {
    "brushFolder": 1,
    "paintFolder": 2,
    "assignFolder": 3,
    "stateFolder": 4,
    "initFolder": 5,
    "FolderDynamo": 6,
    "brushFile": 7,
    "paintFile": 8,
    "assignFile": 9,
    "stateFile": 10,
    "initFile": 11,
    "FileDynamo": 12
   }
  },
  "xyz.swapee.wc.IFileTreeRadio": {
   "id": 349066825018,
   "symbols": {},
   "methods": {
    "adaptLoadFiles": 1
   }
  },
  "xyz.swapee.wc.IFileTreeDesigner": {
   "id": 349066825019,
   "symbols": {},
   "methods": {
    "borrowClasses": 1,
    "classes": 2,
    "communicator": 3,
    "relay": 4
   }
  },
  "xyz.swapee.wc.IFileTreeService": {
   "id": 349066825020,
   "symbols": {},
   "methods": {
    "filterFiles": 1
   }
  },
  "xyz.swapee.wc.IFileTreeGPU": {
   "id": 349066825021,
   "symbols": {},
   "methods": {
    "makeFolderElement": 1,
    "makeFileElement": 2
   }
  },
  "xyz.swapee.wc.IFileTreeDisplay": {
   "id": 349066825022,
   "symbols": {},
   "methods": {
    "paint": 1
   }
  },
  "xyz.swapee.wc.FileTreeVdusPQs": {
   "id": 349066825023,
   "symbols": {},
   "methods": {
    "constructor": 1
   }
  },
  "xyz.swapee.wc.back.IFileTreeDisplay": {
   "id": 349066825024,
   "symbols": {},
   "methods": {
    "paint": 1
   }
  },
  "xyz.swapee.wc.IFileTreeController": {
   "id": 349066825025,
   "symbols": {},
   "methods": {
    "resetPort": 1,
    "loadFiles": 2,
    "openFile": 3,
    "onOpenFile": 4,
    "setExpanded": 5,
    "unsetExpanded": 6,
    "flipExpanded": 7
   }
  },
  "xyz.swapee.wc.front.IFileTreeController": {
   "id": 349066825026,
   "symbols": {},
   "methods": {
    "loadFiles": 1,
    "openFile": 2,
    "onOpenFile": 3,
    "setExpanded": 4,
    "unsetExpanded": 5,
    "flipExpanded": 6
   }
  },
  "xyz.swapee.wc.back.IFileTreeController": {
   "id": 349066825027,
   "symbols": {},
   "methods": {}
  },
  "xyz.swapee.wc.back.IFileTreeControllerAR": {
   "id": 349066825028,
   "symbols": {},
   "methods": {}
  },
  "xyz.swapee.wc.front.IFileTreeControllerAT": {
   "id": 349066825029,
   "symbols": {},
   "methods": {}
  },
  "xyz.swapee.wc.IFileTreeScreen": {
   "id": 349066825030,
   "symbols": {},
   "methods": {
    "makeFolderElement": 1,
    "makeFileElement": 2
   }
  },
  "xyz.swapee.wc.back.IFileTreeScreen": {
   "id": 349066825031,
   "symbols": {},
   "methods": {}
  },
  "xyz.swapee.wc.front.IFileTreeScreenAR": {
   "id": 349066825032,
   "symbols": {},
   "methods": {}
  },
  "xyz.swapee.wc.back.IFileTreeScreenAT": {
   "id": 349066825033,
   "symbols": {},
   "methods": {}
  },
  "xyz.swapee.wc.FileTreeClassesPQs": {
   "id": 349066825034,
   "symbols": {},
   "methods": {
    "constructor": 1
   }
  },
  "xyz.swapee.wc.IFileTreeHtmlComponentUtil": {
   "id": 349066825035,
   "symbols": {},
   "methods": {
    "router": 1
   }
  },
  "xyz.swapee.wc.FileTreeQueriesPQs": {
   "id": 349066825036,
   "symbols": {},
   "methods": {
    "constructor": 1
   }
  },
  "xyz.swapee.wc.IFileTreeControllerHyperslice": {
   "id": 349066825037,
   "symbols": {},
   "methods": {}
  },
  "xyz.swapee.wc.IFileTreeControllerBindingHyperslice": {
   "id": 349066825038,
   "symbols": {},
   "methods": {}
  },
  "xyz.swapee.wc.front.IFileTreeControllerHyperslice": {
   "id": 349066825039,
   "symbols": {},
   "methods": {}
  },
  "xyz.swapee.wc.front.IFileTreeControllerBindingHyperslice": {
   "id": 349066825040,
   "symbols": {},
   "methods": {}
  }
 }
}