{
 "lastId": 8,
 "interfaces": {
  "xyz.swapee.wc.IOfferExchangeInterruptLineJoinpointModelHyperslice": {
   "id": 1,
   "symbols": {},
   "methods": {}
  },
  "xyz.swapee.wc.IOfferExchangeInterruptLineJoinpointModelBindingHyperslice": {
   "id": 2,
   "symbols": {},
   "methods": {}
  },
  "xyz.swapee.wc.IOfferExchangeInterruptLineJoinpointModel": {
   "id": 3,
   "symbols": {},
   "methods": {
    "beforeAtInputFocus": 1,
    "afterAtInputFocus": 2,
    "afterAtInputFocusThrows": 3,
    "afterAtInputFocusReturns": 4,
    "afterAtInputFocusCancels": 5,
    "beforeAtInputBlur": 6,
    "afterAtInputBlur": 7,
    "afterAtInputBlurThrows": 8,
    "afterAtInputBlurReturns": 9,
    "afterAtInputBlurCancels": 10,
    "beforeAtAddressPopupClick": 11,
    "afterAtAddressPopupClick": 12,
    "afterAtAddressPopupClickThrows": 13,
    "afterAtAddressPopupClickReturns": 14,
    "afterAtAddressPopupClickCancels": 15,
    "beforePulseCopyPayinAddress": 31,
    "afterPulseCopyPayinAddress": 32,
    "afterPulseCopyPayinAddressThrows": 33,
    "afterPulseCopyPayinAddressReturns": 34,
    "afterPulseCopyPayinAddressCancels": 35,
    "beforePulseCopyPayinExtra": 41,
    "afterPulseCopyPayinExtra": 42,
    "afterPulseCopyPayinExtraThrows": 43,
    "afterPulseCopyPayinExtraReturns": 44,
    "afterPulseCopyPayinExtraCancels": 45
   }
  },
  "xyz.swapee.wc.IOfferExchangeInterruptLineAspectsInstaller": {
   "id": 4,
   "symbols": {},
   "methods": {
    "atInputFocus": 1,
    "atInputBlur": 2,
    "atAddressPopupClick": 3,
    "pulseCopyPayinAddress": 7,
    "pulseCopyPayinExtra": 9
   }
  },
  "xyz.swapee.wc.BOfferExchangeInterruptLineAspects": {
   "id": 5,
   "symbols": {},
   "methods": {
    "constructor": 1
   }
  },
  "xyz.swapee.wc.IOfferExchangeInterruptLineAspects": {
   "id": 6,
   "symbols": {},
   "methods": {}
  },
  "xyz.swapee.wc.IHyperOfferExchangeInterruptLine": {
   "id": 7,
   "symbols": {},
   "methods": {}
  },
  "xyz.swapee.wc.IOfferExchangeInterruptLine": {
   "id": 8,
   "symbols": {},
   "methods": {
    "atInputFocus": 1,
    "atInputBlur": 2,
    "atAddressPopupClick": 3,
    "pulseCopyPayinAddress": 7,
    "pulseCopyPayinExtra": 9
   }
  }
 }
}