AbstractFileTree:34906682501
FileTreePort:34906682503
AbstractFileTreeController:34906682504
FileTreeElement:34906682508
FileTreeBuffer:349066825011
AbstractFileTreeComputer:349066825030
FileTreeProcessor:349066825051
FileTreeController:349066825061