{
 "1": [
  {
   "name": "AbstractSwapeeLoading",
   "path": "generated/maurice/circuits/swapee-loading/SwapeeLoading.mvc/gen/AbstractSwapeeLoading/index.js",
   "type": "xyz.swapee.wc.AbstractSwapeeLoading"
  }
 ],
 "3": [
  {
   "name": "SwapeeLoadingPort",
   "path": "generated/maurice/circuits/swapee-loading/SwapeeLoading.mvc/gen/SwapeeLoadingPort/index.js",
   "type": "xyz.swapee.wc.SwapeeLoadingPort"
  }
 ],
 "4": [
  {
   "name": "AbstractSwapeeLoadingController",
   "path": "generated/maurice/circuits/swapee-loading/SwapeeLoading.mvc/gen/AbstractSwapeeLoadingController/index.js",
   "type": "xyz.swapee.wc.AbstractSwapeeLoadingController"
  }
 ],
 "8": [
  {
   "name": "SwapeeLoadingElement",
   "path": "generated/maurice/circuits/swapee-loading/SwapeeLoading.mvc/src/SwapeeLoadingElement/index.js",
   "type": "xyz.swapee.wc.SwapeeLoadingElement"
  }
 ],
 "11": [
  {
   "name": "SwapeeLoadingBuffer",
   "path": "generated/maurice/circuits/swapee-loading/SwapeeLoading.mvc/gen/SwapeeLoadingBuffer/index.js",
   "type": "xyz.swapee.wc.SwapeeLoadingBuffer"
  }
 ],
 "30": [
  {
   "name": "AbstractSwapeeLoadingComputer",
   "path": "generated/maurice/circuits/swapee-loading/SwapeeLoading.mvc/gen/AbstractSwapeeLoadingComputer/index.js",
   "type": "xyz.swapee.wc.AbstractSwapeeLoadingComputer"
  }
 ],
 "61": [
  {
   "name": "SwapeeLoadingController",
   "path": "generated/maurice/circuits/swapee-loading/SwapeeLoading.mvc/src/SwapeeLoadingServerController/index.js",
   "type": "xyz.swapee.wc.SwapeeLoadingController"
  }
 ]
}