{
 "version": 1,
 "tags": [
  {
   "name": "xyz.swapee.wc.ICryptoSelect",
   "attributes": [
    {
     "name": "atSelectedEdge",
     "description": "Triggered when `selected` changed edge."
    },
    {
     "name": "atSelectedHigh",
     "description": "Triggered when `selected` is high."
    },
    {
     "name": "atSelectedLow",
     "description": "Triggered when `selected` is low."
    },
    {
     "name": "atIconFolderEdge",
     "description": "Triggered when `iconFolder` changed edge."
    },
    {
     "name": "atIconFolderHigh",
     "description": "Triggered when `iconFolder` is high."
    },
    {
     "name": "atIconFolderLow",
     "description": "Triggered when `iconFolder` is low."
    },
    {
     "name": "atFiatEdge",
     "description": "Triggered when `fiat` changed edge."
    },
    {
     "name": "atFiatHigh",
     "description": "Triggered when `fiat` is high."
    },
    {
     "name": "atFiatLow",
     "description": "Triggered when `fiat` is low."
    },
    {
     "name": "atImHtmlEdge",
     "description": "Triggered when `imHtml` changed edge."
    },
    {
     "name": "atImHtmlHigh",
     "description": "Triggered when `imHtml` is high."
    },
    {
     "name": "atImHtmlLow",
     "description": "Triggered when `imHtml` is low."
    },
    {
     "name": "atSearchEdge",
     "description": "Triggered when `search` changed edge."
    },
    {
     "name": "atSearchHigh",
     "description": "Triggered when `search` is high."
    },
    {
     "name": "atSearchLow",
     "description": "Triggered when `search` is low."
    },
    {
     "name": "atSelectedIconEdge",
     "description": "Triggered when `selectedIcon` changed edge."
    },
    {
     "name": "atSelectedIconHigh",
     "description": "Triggered when `selectedIcon` is high."
    },
    {
     "name": "atSelectedIconLow",
     "description": "Triggered when `selectedIcon` is low."
    },
    {
     "name": "atMenuExpandedEdge",
     "description": "Triggered when `menuExpanded` changed edge."
    },
    {
     "name": "atMenuExpandedHigh",
     "description": "Triggered when `menuExpanded` is high."
    },
    {
     "name": "atMenuExpandedLow",
     "description": "Triggered when `menuExpanded` is low."
    },
    {
     "name": "atIsMouseOverEdge",
     "description": "Triggered when `isMouseOver` changed edge."
    },
    {
     "name": "atIsMouseOverHigh",
     "description": "Triggered when `isMouseOver` is high."
    },
    {
     "name": "atIsMouseOverLow",
     "description": "Triggered when `isMouseOver` is low."
    },
    {
     "name": "atSmEdge",
     "description": "Triggered when `sm` changed edge."
    },
    {
     "name": "atSmHigh",
     "description": "Triggered when `sm` is high."
    },
    {
     "name": "atSmLow",
     "description": "Triggered when `sm` is low."
    },
    {
     "name": "atIsSearchingEdge",
     "description": "Triggered when `isSearching` changed edge."
    },
    {
     "name": "atIsSearchingHigh",
     "description": "Triggered when `isSearching` is high."
    },
    {
     "name": "atIsSearchingLow",
     "description": "Triggered when `isSearching` is low."
    },
    {
     "name": "atHoveringIndexEdge",
     "description": "Triggered when `hoveringIndex` changed edge."
    },
    {
     "name": "atHoveringIndexHigh",
     "description": "Triggered when `hoveringIndex` is high."
    },
    {
     "name": "atHoveringIndexLow",
     "description": "Triggered when `hoveringIndex` is low."
    },
    {
     "name": "atCryptosEdge",
     "description": "Triggered when `cryptos` changed edge."
    },
    {
     "name": "atCryptosHigh",
     "description": "Triggered when `cryptos` is high."
    },
    {
     "name": "atCryptosLow",
     "description": "Triggered when `cryptos` is low."
    },
    {
     "name": "atIgnoreCryptosEdge",
     "description": "Triggered when `ignoreCryptos` changed edge."
    },
    {
     "name": "atIgnoreCryptosHigh",
     "description": "Triggered when `ignoreCryptos` is high."
    },
    {
     "name": "atIgnoreCryptosLow",
     "description": "Triggered when `ignoreCryptos` is low."
    },
    {
     "name": "atVisibleItemsEdge",
     "description": "Triggered when `visibleItems` changed edge."
    },
    {
     "name": "atVisibleItemsHigh",
     "description": "Triggered when `visibleItems` is high."
    },
    {
     "name": "atVisibleItemsLow",
     "description": "Triggered when `visibleItems` is low."
    },
    {
     "name": "atKeyboardSelectedEdge",
     "description": "Triggered when `keyboardSelected` changed edge."
    },
    {
     "name": "atKeyboardSelectedHigh",
     "description": "Triggered when `keyboardSelected` is high."
    },
    {
     "name": "atKeyboardSelectedLow",
     "description": "Triggered when `keyboardSelected` is low."
    },
    {
     "name": "atSelectedCryptoEdge",
     "description": "Triggered when `selectedCrypto` changed edge."
    },
    {
     "name": "atSelectedCryptoHigh",
     "description": "Triggered when `selectedCrypto` is high."
    },
    {
     "name": "atSelectedCryptoLow",
     "description": "Triggered when `selectedCrypto` is low."
    },
    {
     "name": "atMatchedKeysEdge",
     "description": "Triggered when `matchedKeys` changed edge."
    },
    {
     "name": "atMatchedKeysHigh",
     "description": "Triggered when `matchedKeys` is high."
    },
    {
     "name": "atMatchedKeysLow",
     "description": "Triggered when `matchedKeys` is low."
    }
   ]
  }
 ]
}