{
 "CryptoSelectIn": 1,
 "CryptoSelectOut": 2,
 "AmountIn": 3,
 "AmountOut": 4,
 "FixedLa": 5,
 "FloatingLa": 6,
 "OutWr": 7,
 "InWr": 8,
 "ExchangeIntent": 9,
 "WaitForReady": 10,
 "ReadyLoadingStripe1": 11,
 "ReadyLoadingStripe2": 12,
 "WaitForReadies": 13,
 "ShowWhenReadies": 14,
 "HideWhenReadies": 15,
 "AmountOutLoIn": 16,
 "DealBroker": 17,
 "MinAmountWr": 18,
 "MinAmountLa": 19,
 "MaxAmountWr": 20,
 "MaxAmountLa": 21,
 "SwapBus": 22,
 "AnyLa": 23,
 "ShowWhenSelectedIn": 24,
 "ShowWhenSelectedOut": 25
}