{
 "41": [
  {
   "name": "SwapeeMeAccountDisplay",
   "path": "generated/maurice/circuits/swapee-me-account/SwapeeMeAccount.mvc/src/SwapeeMeAccountDisplay/index.js",
   "type": "xyz.swapee.wc.SwapeeMeAccountDisplay"
  }
 ],
 "71": [
  {
   "name": "SwapeeMeAccountScreen",
   "path": "generated/maurice/circuits/swapee-me-account/SwapeeMeAccount.mvc/src/SwapeeMeAccountScreen/index.js",
   "type": "xyz.swapee.wc.SwapeeMeAccountScreen"
  }
 ]
}