{
 "AwaitingStatusLa": 1,
 "ConfirmingStatusLa": 2,
 "ExchangingStatusLa": 3,
 "SendingStatusLa": 4,
 "FinishedStatusLa": 5,
 "FailedStatusLa": 6,
 "RefundedStatusLa": 7,
 "OverdueStatusLa": 8,
 "HoldStatusLa": 9,
 "ExpiredStatusLa": 10,
 "NewStatusLa": 11,
 "LoadingStripe": 12
}