{
 "lastId": 30,
 "interfaces": {
  "xyz.swapee.wc.IOfferExchangeInfoRowComputer": {
   "id": 87118835651,
   "symbols": {},
   "methods": {
    "compute": 1
   }
  },
  "xyz.swapee.wc.OfferExchangeInfoRowMemoryPQs": {
   "id": 87118835652,
   "symbols": {},
   "methods": {
    "constructor": 1
   }
  },
  "xyz.swapee.wc.IOfferExchangeInfoRowOuterCore": {
   "id": 87118835653,
   "symbols": {},
   "methods": {}
  },
  "xyz.swapee.wc.OfferExchangeInfoRowInputsPQs": {
   "id": 87118835654,
   "symbols": {},
   "methods": {
    "constructor": 1
   }
  },
  "xyz.swapee.wc.IOfferExchangeInfoRowPort": {
   "id": 87118835655,
   "symbols": {},
   "methods": {
    "resetPort": 1,
    "resetOfferExchangeInfoRowPort": 2
   }
  },
  "xyz.swapee.wc.IOfferExchangeInfoRowPortInterface": {
   "id": 87118835656,
   "symbols": {},
   "methods": {}
  },
  "xyz.swapee.wc.IOfferExchangeInfoRowCore": {
   "id": 87118835657,
   "symbols": {},
   "methods": {
    "resetCore": 1,
    "resetOfferExchangeInfoRowCore": 2
   }
  },
  "xyz.swapee.wc.IOfferExchangeInfoRowProcessor": {
   "id": 87118835658,
   "symbols": {},
   "methods": {}
  },
  "xyz.swapee.wc.IOfferExchangeInfoRow": {
   "id": 87118835659,
   "symbols": {},
   "methods": {}
  },
  "xyz.swapee.wc.IOfferExchangeInfoRowBuffer": {
   "id": 871188356510,
   "symbols": {},
   "methods": {}
  },
  "xyz.swapee.wc.IOfferExchangeInfoRowHtmlComponentUtil": {
   "id": 871188356511,
   "symbols": {},
   "methods": {
    "router": 1
   }
  },
  "xyz.swapee.wc.IOfferExchangeInfoRowHtmlComponent": {
   "id": 871188356512,
   "symbols": {},
   "methods": {}
  },
  "xyz.swapee.wc.IOfferExchangeInfoRowElement": {
   "id": 871188356513,
   "symbols": {},
   "methods": {
    "solder": 1,
    "render": 2,
    "build": 3,
    "short": 5,
    "server": 6,
    "inducer": 7,
    "buildDealBroker": 8,
    "buildExchangeIntent": 9
   }
  },
  "xyz.swapee.wc.IOfferExchangeInfoRowElementPort": {
   "id": 871188356514,
   "symbols": {},
   "methods": {}
  },
  "xyz.swapee.wc.IOfferExchangeInfoRowDesigner": {
   "id": 871188356515,
   "symbols": {},
   "methods": {
    "borrowClasses": 1,
    "classes": 2,
    "communicator": 3,
    "relay": 4
   }
  },
  "xyz.swapee.wc.IOfferExchangeInfoRowGPU": {
   "id": 871188356516,
   "symbols": {},
   "methods": {}
  },
  "xyz.swapee.wc.IOfferExchangeInfoRowDisplay": {
   "id": 871188356517,
   "symbols": {},
   "methods": {
    "paint": 1
   }
  },
  "xyz.swapee.wc.OfferExchangeInfoRowQueriesPQs": {
   "id": 871188356518,
   "symbols": {},
   "methods": {
    "constructor": 1
   }
  },
  "xyz.swapee.wc.OfferExchangeInfoRowVdusPQs": {
   "id": 871188356519,
   "symbols": {},
   "methods": {
    "constructor": 1
   }
  },
  "xyz.swapee.wc.back.IOfferExchangeInfoRowDisplay": {
   "id": 871188356520,
   "symbols": {},
   "methods": {
    "paint": 1
   }
  },
  "xyz.swapee.wc.IOfferExchangeInfoRowController": {
   "id": 871188356521,
   "symbols": {},
   "methods": {
    "resetPort": 1
   }
  },
  "xyz.swapee.wc.front.IOfferExchangeInfoRowController": {
   "id": 871188356522,
   "symbols": {},
   "methods": {}
  },
  "xyz.swapee.wc.back.IOfferExchangeInfoRowController": {
   "id": 871188356523,
   "symbols": {},
   "methods": {}
  },
  "xyz.swapee.wc.back.IOfferExchangeInfoRowControllerAR": {
   "id": 871188356524,
   "symbols": {},
   "methods": {}
  },
  "xyz.swapee.wc.front.IOfferExchangeInfoRowControllerAT": {
   "id": 871188356525,
   "symbols": {},
   "methods": {}
  },
  "xyz.swapee.wc.IOfferExchangeInfoRowScreen": {
   "id": 871188356526,
   "symbols": {},
   "methods": {}
  },
  "xyz.swapee.wc.back.IOfferExchangeInfoRowScreen": {
   "id": 871188356527,
   "symbols": {},
   "methods": {}
  },
  "xyz.swapee.wc.front.IOfferExchangeInfoRowScreenAR": {
   "id": 871188356528,
   "symbols": {},
   "methods": {}
  },
  "xyz.swapee.wc.back.IOfferExchangeInfoRowScreenAT": {
   "id": 871188356529,
   "symbols": {},
   "methods": {}
  },
  "xyz.swapee.wc.OfferExchangeInfoRowClassesPQs": {
   "id": 871188356530,
   "symbols": {},
   "methods": {
    "constructor": 1
   }
  }
 }
}